{
  "command" : "hw-sw-eos-check",
  "metrics" : [ {
    "tags" : {
      "im.dstype" : "gauge",
      "im.metric-type" : "ts",
      "im.name" : "software-eos-date",
      "im.step" : "3600"
    },
    "value" : "1.5566616E9"
  } ]
}
