{
  "command" : "unix-top-b",
  "metrics" : [ {
    "tags" : {
      "im.dstype" : "gauge",
      "im.metric-type" : "ts",
      "im.name" : "tasks-zombies",
      "im.step" : "600"
    },
    "value" : "41.0"
  }, {
    "tags" : {
      "display-name" : "Load Average (15 Minutes)",
      "im.dstype" : "gauge",
      "im.dstype.displaytype" : "number",
      "im.metric-type" : "ts",
      "im.name" : "load-average-fifteen-minutes",
      "im.step" : "600",
      "live-config" : "true"
    },
    "values" : ["3.12", "1", "2", "1"]
  }, {
    "tags" : {
      "display-name" : "Load Average (5 Minutes)",
      "im.dstype" : "gauge",
      "im.dstype.displaytype" : "number",
      "im.metric-type" : "ts",
      "im.name" : "load-average-five-minutes",
      "im.step" : "600",
      "live-config" : "true"
    },
    "values" : ["3.16", "1", "2", "1"]
  }, {
    "tags" : {
      "display-name" : "Load Average (1 Minute)",
      "im.dstype" : "gauge",
      "im.dstype.displaytype" : "number",
      "im.metric-type" : "ts",
      "im.name" : "load-average-one-minute",
      "im.step" : "600",
      "live-config" : "true"
    },
    "values" : ["2.43", "1", "2", "1"]
  } ]
}
