{
  "command" : "radware-SlbStatEnhRServerTable",
  "metrics" : [ {
    "tags" : {
      "display-name" : "Real Servers - Concurrent Connections",
      "im.dstype" : "gauge",
      "im.dstype.displaytype" : "number",
      "im.identity-tags" : "name",
      "im.metric-type" : "ts",
      "im.name" : "lb-server-concurrent-connections",
      "live-config" : "true",
      "name" : "bc2d1111-21"
    },
    "value" : "0.0"
  } ]
}
