{
  "command" : "radware-switchCapIpARPCurrEnt",
  "metrics" : [ {
    "tags" : {
      "display-name" : "ARP - Entries",
      "im.dstype.displaytype" : "number",
      "im.name" : "arp-total-entries",
      "live-config" : "true"
    },
    "value" : "105.0"
  } ]
}
