{
  "command" : "fw-accel-stat",
  "metrics" : [ {
    "tags" : {
      "display-name" : "SecureXL - State",
      "im.metric-type" : "runtime",
      "im.name" : "securexl-status",
      "live-config" : "true",
      "vs.id" : "0",
      "vs.name" : "lab-CP-VSXVSLS-1-R7730"
    },
    "value" : {
      "value" : "on"
    }
  }, {
    "tags" : {
      "display-name" : "SecureXL - State",
      "im.metric-type" : "runtime",
      "im.name" : "securexl-status",
      "live-config" : "true",
      "vs.id" : "1",
      "vs.name" : "lab-CP-VSXVSLS-1-R7730_VSW"
    },
    "value" : {
      "value" : "on"
    }
  }, {
    "tags" : {
      "display-name" : "SecureXL - State",
      "im.metric-type" : "runtime",
      "im.name" : "securexl-status",
      "live-config" : "true",
      "vs.id" : "2",
      "vs.name" : "lab-CP-VSXVSLS-1-R7730_lab-VS3"
    },
    "value" : {
      "value" : "off"
    }
  }, {
    "tags" : {
      "display-name" : "SecureXL - State",
      "im.metric-type" : "runtime",
      "im.name" : "securexl-status",
      "live-config" : "true",
      "vs.id" : "3",
      "vs.name" : "lab-CP-VSXVSLS-1-R7730_lab-VS4"
    },
    "value" : {
      "value" : "on"
    }
  }, {
    "tags" : {
      "display-name" : "SecureXL - Templating Disabled From Rule Number",
      "im.metric-type" : "runtime",
      "im.name" : "securexl-disabled-from-rule",
      "live-config" : "true",
      "vs.id" : "0",
      "vs.name" : "lab-CP-VSXVSLS-1-R7730"
    },
    "value" : {
      "value" : "184"
    }
  }, {
    "tags" : {
      "display-name" : "SecureXL - Templating Disabled From Rule Number",
      "im.metric-type" : "runtime",
      "im.name" : "securexl-disabled-from-rule",
      "live-config" : "true",
      "vs.id" : "3",
      "vs.name" : "lab-CP-VSXVSLS-1-R7730_lab-VS4"
    },
    "value" : {
      "value" : "5"
    }
  } ]
}
