{
  "command" : "junos-show-chassis-cluster-status",
  "metrics" : [ {
    "tags" : {
      "display-name" : "Cluster Preemption Enabled",
      "im.dstype" : "gauge",
      "im.dstype.displaytype" : "boolean",
      "im.metric-type" : "ts",
      "im.name" : "cluster-preemption-enabled",
      "live-config" : "true"
    },
    "value" : "1.0"
  }, {
    "tags" : {
      "display-name" : "Cluster Member Active",
      "im.dstype" : "gauge",
      "im.dstype.displaytype" : "state",
      "im.identity-tags" : "name",
      "im.metric-type" : "ts",
      "im.name" : "cluster-member-active",
      "live-config" : "true",
      "name" : "0"
    },
    "value" : "1.0"
  }, {
    "tags" : {
      "display-name" : "Cluster State",
      "im.dstype" : "gauge",
      "im.dstype.displaytype" : "state",
      "im.identity-tags" : "name",
      "im.metric-type" : "ts",
      "im.name" : "cluster-state",
      "live-config" : "true",
      "name" : "0"
    },
    "value" : "0.0"
  } ]
}
