{
  "command" : "f5-rest-mgmt-cm-system-machineid-resolver",
  "metrics" : [ {
    "tags" : {
      "display-name" : "Known devices",
      "im.name" : "known-devices",
      "live-config" : "true"
    },
    "value" : [ {
      "name" : "BIGIQ-01.kdlab.indeni.com",
      "ip" : "192.168.197.54"
    }, {
      "name" : "F5-LB1.kdlab.indeni.com",
      "ip" : "192.168.197.50"
    }, {
      "name" : "F5-LB3.kdlab.indeni.com",
      "ip" : "192.168.197.52"
    }, {
      "name" : "F5-LB2.kdlab.indeni.com",
      "ip" : "192.168.197.51"
    } ]
  } ]
}
