{
  "command" : "nexus-ntp-peer-status",
  "metrics" : [ {
    "tags" : {
      "im.dstype" : "gauge",
      "im.metric-type" : "ts",
      "im.name" : "ntp-server-state",
      "im.step" : "300",
      "name" : "13.80.12.54"
    },
    "value" : "1.0"
  }, {
    "tags" : {
      "im.dstype" : "gauge",
      "im.metric-type" : "ts",
      "im.name" : "ntp-server-state",
      "im.step" : "300",
      "name" : "216.239.35.4"
    },
    "value" : "0.0"
  }, {
    "tags" : {
      "im.dstype" : "gauge",
      "im.metric-type" : "ts",
      "im.name" : "ntp-server-state",
      "im.step" : "300",
      "name" : "216.239.35.6"
    },
    "value" : "1.0"
  }, {
    "tags" : {
      "im.dstype" : "gauge",
      "im.metric-type" : "ts",
      "im.name" : "ntp-server-state",
      "im.step" : "300",
      "name" : "216.239.35.7"
    },
    "value" : "1.0"
  } ]
}
