{
  "command" : "nexus-show-interface",
  "metrics" : [ {
    "tags" : {
      "display-name" : "Interfaces",
      "im.dstype.displaytype" : "state",
      "im.identity-tags" : "name",
      "im.name" : "network-interface-admin-state",
      "live-config" : "true",
      "name" : "Ethernet1/28"
    },
    "value" : "0.0"
  }, {
    "tags" : {
      "display-name" : "Interfaces",
      "im.dstype.displaytype" : "state",
      "im.identity-tags" : "name",
      "im.name" : "network-interface-err-disable",
      "live-config" : "true",
      "name" : "Ethernet1/28"
    },
    "value" : "0.0"
  }, {
    "tags" : {
      "display-name" : "Interfaces",
      "im.dstype.displaytype" : "state",
      "im.identity-tags" : "name",
      "im.name" : "network-interface-invalid-sfp",
      "live-config" : "true",
      "name" : "Ethernet1/28"
    },
    "value" : "0.0"
  }, {
    "tags" : {
      "display-name" : "Interfaces",
      "im.identity-tags" : "name",
      "im.name" : "network-interface-duplex",
      "live-config" : "true",
      "name" : "Ethernet1/28"
    },
    "value" : {
      "value" : "full"
    }
  }, {
    "tags" : {
      "display-name" : "Interfaces",
      "im.identity-tags" : "name",
      "im.name" : "network-interface-mac",
      "live-config" : "true",
      "name" : "Ethernet1/28"
    },
    "value" : {
      "value" : "002a.6a9f.7863"
    }
  }, {
    "tags" : {
      "display-name" : "Interfaces",
      "dstype" : "counter",
      "im.dstype.displaytype" : "number",
      "im.identity-tags" : "name",
      "im.name" : "network-interface-rx-bytes",
      "live-config" : "true",
      "name" : "Ethernet1/28"
    },
    "value" : "0.0"
  }, {
    "tags" : {
      "display-name" : "Interfaces",
      "dstype" : "counter",
      "im.dstype.displaytype" : "number",
      "im.identity-tags" : "name",
      "im.name" : "network-interface-rx-dropped",
      "live-config" : "true",
      "name" : "Ethernet1/28"
    },
    "value" : "0.0"
  }, {
    "tags" : {
      "display-name" : "Interfaces",
      "dstype" : "counter",
      "im.dstype.displaytype" : "number",
      "im.identity-tags" : "name",
      "im.name" : "network-interface-rx-frame",
      "live-config" : "true",
      "name" : "Ethernet1/28"
    },
    "value" : "0.0"
  }, {
    "tags" : {
      "display-name" : "Interfaces",
      "dstype" : "counter",
      "im.dstype.displaytype" : "number",
      "im.identity-tags" : "name",
      "im.name" : "network-interface-rx-packets",
      "live-config" : "true",
      "name" : "Ethernet1/28"
    },
    "value" : "0.0"
  }, {
    "tags" : {
      "display-name" : "Interfaces",
      "dstype" : "counter",
      "im.dstype.displaytype" : "number",
      "im.identity-tags" : "name",
      "im.name" : "network-interface-tx-bytes",
      "live-config" : "true",
      "name" : "Ethernet1/28"
    },
    "value" : "0.0"
  }, {
    "tags" : {
      "display-name" : "Interfaces",
      "dstype" : "counter",
      "im.dstype.displaytype" : "number",
      "im.identity-tags" : "name",
      "im.name" : "network-interface-tx-carrier",
      "live-config" : "true",
      "name" : "Ethernet1/28"
    },
    "value" : "0.0"
  }, {
    "tags" : {
      "display-name" : "Interfaces",
      "dstype" : "counter",
      "im.dstype.displaytype" : "number",
      "im.identity-tags" : "name",
      "im.name" : "network-interface-tx-errors",
      "live-config" : "true",
      "name" : "Ethernet1/28"
    },
    "value" : "0.0"
  }, {
    "tags" : {
      "display-name" : "Interfaces",
      "im.identity-tags" : "name",
      "im.name" : "network-interface-mtu",
      "live-config" : "true",
      "name" : "Ethernet1/28"
    },
    "value" : {
      "value" : "1500"
    }
  }, {
    "tags" : {
      "display-name" : "Interfaces",
      "im.identity-tags" : "name",
      "im.name" : "network-interface-type",
      "live-config" : "true",
      "name" : "Ethernet1/28"
    },
    "value" : {
      "value" : "1000/10000 Ethernet"
    }
  }, {
    "tags" : {
      "display-name" : "Interfaces",
      "im.dstype.displaytype" : "state",
      "im.identity-tags" : "name",
      "im.name" : "network-interface-state",
      "live-config" : "true",
      "name" : "Ethernet1/28"
    },
    "value" : "0.0"
  }, {
    "tags" : {
      "display-name" : "Interfaces",
      "dstype" : "counter",
      "im.dstype.displaytype" : "number",
      "im.identity-tags" : "name",
      "im.name" : "network-interface-rx-overruns",
      "live-config" : "true",
      "name" : "Ethernet1/28"
    },
    "value" : "0.0"
  }, {
    "tags" : {
      "display-name" : "Interfaces",
      "dstype" : "counter",
      "im.dstype.displaytype" : "number",
      "im.identity-tags" : "name",
      "im.name" : "network-interface-tx-overruns",
      "live-config" : "true",
      "name" : "Ethernet1/28"
    },
    "value" : "0.0"
  }, {
    "tags" : {
      "display-name" : "Interfaces",
      "dstype" : "counter",
      "im.dstype.displaytype" : "number",
      "im.identity-tags" : "name",
      "im.name" : "network-interface-tx-packets",
      "live-config" : "true",
      "name" : "Ethernet1/28"
    },
    "value" : "0.0"
  } ]
}
