{
  "command" : "nexus-show-version",
  "metrics" : [ {
    "tags" : {
      "im.metric-type" : "runtime",
      "im.name" : "hostname"
    },
    "value" : {
      "value" : "DTLPCF1-SW2"
    }
  }, {
    "tags" : {
      "im.metric-type" : "runtime",
      "im.name" : "os-name"
    },
    "value" : {
      "value" : "NX-OS"
    }
  }, {
    "tags" : {
      "im.dstype" : "counter",
      "im.metric-type" : "ts",
      "im.name" : "uptime-seconds"
    },
    "value" : "2065193.0"
  }, {
    "tags" : {
      "im.metric-type" : "runtime",
      "im.name" : "os-version"
    },
    "value" : {
      "value" : "7.0(3)I5(2)"
    }
  }, {
    "tags" : {
      "im.metric-type" : "runtime",
      "im.name" : "vendor"
    },
    "value" : {
      "value" : "Cisco"
    }
  } ]
}
