{
  "command" : "nexus-show-cdp-neighbors-detail",
  "metrics" : [ {
    "tags" : {
      "display-name" : "CDP",
      "im.identity-tags" : "name",
      "im.name" : "known-devices",
      "live-config" : "true"
    },
    "value" : [ {
      "name" : "filer202",
      "ip" : "10.30.9.202"
    }, {
      "name" : "filer201",
      "ip" : "10.30.9.201"
    }, {
      "name" : "FI-02-A(SSI201705QR)",
      "ip" : "10.24.3.12"
    }, {
      "name" : "cns2.la1(FOC1816R3C5)",
      "ip" : "10.28.1.23"
    }, {
      "name" : "asr1.la1.xxx.net",
      "ip" : "10.28.1.16"
    }, {
      "name" : "mn1.la1",
      "ip" : "10.30.3.3"
    }, {
      "name" : "FI-02-B(SSI201705QP)",
      "ip" : "10.24.3.13"
    }, {
      "name" : "cns2.la1(FOC1816R3C5)",
      "ip" : "192.11.110.3"
    }, {
      "name" : "cns2.la1(FOC1816R3C5)",
      "ip" : "10.28.1.21"
    } ]
  } ]
}
