{
  "command" : "nexus-show-environment-fex-all",
  "metrics" : [ {
    "tags" : {
      "display-name" : "FEX Fan Status",
      "im.dstype.displaytype" : "state",
      "im.identity-tags" : "name",
      "im.name" : "hardware-element-status",
      "live-config" : "true",
      "name" : "FEX 100 Fan Chassis"
    },
    "value" : "1.0"
  }, {
    "tags" : {
      "display-name" : "FEX Fan Status",
      "im.dstype.displaytype" : "state",
      "im.identity-tags" : "name",
      "im.name" : "hardware-element-status",
      "live-config" : "true",
      "name" : "FEX 100 Fan PS-1"
    },
    "value" : "1.0"
  }, {
    "tags" : {
      "display-name" : "FEX Fan Status",
      "im.dstype.displaytype" : "state",
      "im.identity-tags" : "name",
      "im.name" : "hardware-element-status",
      "live-config" : "true",
      "name" : "FEX 100 Fan PS-2"
    },
    "value" : "1.0"
  }, {
    "tags" : {
      "display-name" : "FEX Module Power Status",
      "im.dstype.displaytype" : "state",
      "im.identity-tags" : "name",
      "im.name" : "hardware-element-status",
      "live-config" : "true",
      "name" : "FEX 100 Module 1 (N2K-C2248TP-E-1GE) Power"
    },
    "value" : "1.0"
  }, {
    "tags" : {
      "display-name" : "FEX Temperature Status",
      "im.dstype.displaytype" : "state",
      "im.identity-tags" : "name",
      "im.name" : "hardware-element-status",
      "live-config" : "true",
      "name" : "Temperature FEX 100 Module 1 Sensor Die-1"
    },
    "value" : "1.0"
  }, {
    "tags" : {
      "display-name" : "FEX Temperature Status",
      "im.dstype.displaytype" : "state",
      "im.identity-tags" : "name",
      "im.name" : "hardware-element-status",
      "live-config" : "true",
      "name" : "Temperature FEX 100 Module 1 Sensor Inlet-1"
    },
    "value" : "1.0"
  }, {
    "tags" : {
      "display-name" : "FEX Temperature Status",
      "im.dstype.displaytype" : "state",
      "im.identity-tags" : "name",
      "im.name" : "hardware-element-status",
      "live-config" : "true",
      "name" : "Temperature FEX 100 Module 1 Sensor Outlet-1"
    },
    "value" : "1.0"
  }, {
    "tags" : {
      "display-name" : "FEX Temperature Status",
      "im.dstype.displaytype" : "state",
      "im.identity-tags" : "name",
      "im.name" : "hardware-element-status",
      "live-config" : "true",
      "name" : "Temperature FEX 100 Module 1 Sensor Outlet-2"
    },
    "value" : "0.0"
  } ]
}
