{
  "command" : "panos-show-system-info-monitoring",
  "metrics" : [ {
    "tags" : {
      "display-name" : " Overview ",
      "im.name" : "model",
      "live-config" : "true"
    },
    "value" : {
      "value" : "PA-7050"
    }
  }, {
    "tags" : {
      "display-name" : " Overview ",
      "im.name" : "os-name",
      "live-config" : "true"
    },
    "value" : {
      "value" : "PAN-OS"
    }
  }, {
    "tags" : {
      "display-name" : " Overview ",
      "im.name" : "os-version",
      "live-config" : "true"
    },
    "value" : {
      "value" : "7.2.1"
    }
  }, {
    "tags" : {
      "display-name" : " Overview ",
      "im.name" : "vendor",
      "live-config" : "true"
    },
    "value" : {
      "value" : "Palo Alto Networks"
    }
  }, {
    "tags" : {
      "display-name" : "Serial Numbers",
      "im.name" : "serial-numbers",
      "live-config" : "true"
    },
    "value" : [ {
      "name" : "Device",
      "serial-number" : "007200003165"
    } ]
  }, {
    "tags" : {
      "display-name" : "Uptime",
      "im.dstype.displaytype" : "duration",
      "im.name" : "uptime-seconds",
      "live-config" : "true"
    },
    "value" : "1.9933054E7"
  } ]
}
