{
  "command" : "linux-proc-uptime",
  "metrics" : [ {
    "tags" : {
      "display-name" : "Uptime",
      "im.dstype" : "gauge",
      "im.dstype.displaytype" : "duration",
      "im.metric-type" : "ts",
      "im.name" : "uptime-seconds",
      "im.step" : "300",
      "live-config" : "true"
    },
    "value" : "1929292"
  } ]
}
