{
  "command" : "f5-rest-mgmt-tm-sys-hardware-interrogation",
  "tags" : {
    "blade" : "false",
    "chassis" : "false",
    "model" : "BIG-IP vCMP Guest",
    "model-displayname" : "BIG-IP vCMP Guest",
    "no-license" : "true",
    "standard_appliance" : "false"
  }
}
