{
  "command" : "f5-rest-mgmt-tm-sys-provision",
  "metrics" : [ {
    "tags" : {
      "im.name" : "features-enabled"
    },
    "value" : [ {
      "name" : "F5 Application Visibility and Reporting"
    }, {
      "name" : "F5 gtm"
    }, {
      "name" : "F5 Local Traffic Manager"
    } ]
  } ]
}
