{
  "command" : "f5-rest-mgmt-tm-sys-cpu-stats",
  "metrics" : [ {
    "tags" : {
      "cpu-id" : "0",
      "cpu-is-avg" : "false",
      "im.dstype.displaytype" : "percentage",
      "im.name" : "cpu-usage",
      "resource-metric" : "true"
    },
    "value" : "10.0"
  }, {
    "tags" : {
      "cpu-id" : "1",
      "cpu-is-avg" : "false",
      "im.dstype.displaytype" : "percentage",
      "im.name" : "cpu-usage",
      "resource-metric" : "true"
    },
    "value" : "5.0"
  }, {
    "tags" : {
      "cpu-id" : "2",
      "cpu-is-avg" : "false",
      "im.dstype.displaytype" : "percentage",
      "im.name" : "cpu-usage",
      "resource-metric" : "true"
    },
    "value" : "13.0"
  }, {
    "tags" : {
      "cpu-id" : "3",
      "cpu-is-avg" : "false",
      "im.dstype.displaytype" : "percentage",
      "im.name" : "cpu-usage",
      "resource-metric" : "true"
    },
    "value" : "14.0"
  } ]
}
