{
  "command" : "f5-rest-mgmt-tm-sys-hardware",
  "metrics" : [ {
    "tags" : {
      "im.name" : "model"
    },
    "value" : {
      "value" : "VPR-C2400"
    }
  }, {
    "tags" : {
      "im.name" : "serial-numbers"
    },
    "value" : [ {
      "serialnumber" : "chs000000s",
      "name" : "chassis"
    } ]
  }, {
    "tags" : {
      "display-name" : "Blades",
      "im.dstype.displaytype" : "state",
      "im.identity-tags" : "name",
      "im.name" : "blade-state",
      "live-config" : "true",
      "name" : "blade-1"
    },
    "value" : "1.0"
  }, {
    "tags" : {
      "display-name" : "Blades",
      "im.dstype.displaytype" : "state",
      "im.identity-tags" : "name",
      "im.name" : "blade-state",
      "live-config" : "true",
      "name" : "blade-2"
    },
    "value" : "0.0"
  }, {
    "tags" : {
      "display-name" : "Blades",
      "im.dstype.displaytype" : "state",
      "im.identity-tags" : "name",
      "im.name" : "blade-state",
      "live-config" : "true",
      "name" : "blade-4"
    },
    "value" : "0.0"
  }, {
    "tags" : {
      "display-name" : "Hardware Element Status",
      "im.dstype.displaytype" : "state",
      "im.identity-tags" : "name",
      "im.name" : "hardware-element-status",
      "live-config" : "true",
      "name" : "Temperature measurement - Slot: 1 Index: 1 Location: Blade air outlet temperature 1"
    },
    "value" : "1.0"
  }, {
    "tags" : {
      "display-name" : "Hardware Element Status",
      "im.dstype.displaytype" : "state",
      "im.identity-tags" : "name",
      "im.name" : "hardware-element-status",
      "live-config" : "true",
      "name" : "Temperature measurement - Slot: 1 Index: 11 Location: Blade chipset temperature"
    },
    "value" : "1.0"
  }, {
    "tags" : {
      "display-name" : "Hardware End of Support",
      "im.dstype.displaytype" : "date",
      "im.name" : "hardware-eos-date",
      "live-config" : "true",
      "serial" : "bld000000s"
    },
    "value" : "1.6645752E9"
  }, {
    "tags" : {
      "display-name" : "Blades",
      "im.dstype.displaytype" : "state",
      "im.identity-tags" : "name",
      "im.name" : "blade-state",
      "live-config" : "true",
      "name" : "blade-3"
    },
    "value" : "0.0"
  }, {
    "tags" : {
      "display-name" : "Hardware Element Status",
      "im.dstype.displaytype" : "state",
      "im.identity-tags" : "name",
      "im.name" : "hardware-element-status",
      "live-config" : "true",
      "name" : "Temperature measurement - Slot: 1 Index: 10 Location: Mezzanine Octeon temperature 2"
    },
    "value" : "1.0"
  }, {
    "tags" : {
      "display-name" : "Hardware Element Status",
      "im.dstype.displaytype" : "state",
      "im.identity-tags" : "name",
      "im.name" : "hardware-element-status",
      "live-config" : "true",
      "name" : "Temperature measurement - Slot: 1 Index: 2 Location: Blade air inlet temperature 1"
    },
    "value" : "1.0"
  }, {
    "tags" : {
      "display-name" : "Hardware Element Status",
      "im.dstype.displaytype" : "state",
      "im.identity-tags" : "name",
      "im.name" : "hardware-element-status",
      "live-config" : "true",
      "name" : "Temperature measurement - Slot: 1 Index: 3 Location: Blade air outlet temperature 2"
    },
    "value" : "1.0"
  }, {
    "tags" : {
      "display-name" : "Hardware Element Status",
      "im.dstype.displaytype" : "state",
      "im.identity-tags" : "name",
      "im.name" : "hardware-element-status",
      "live-config" : "true",
      "name" : "Temperature measurement - Slot: 1 Index: 4 Location: Blade air inlet temperature 2"
    },
    "value" : "1.0"
  }, {
    "tags" : {
      "display-name" : "Hardware Element Status",
      "im.dstype.displaytype" : "state",
      "im.identity-tags" : "name",
      "im.name" : "hardware-element-status",
      "live-config" : "true",
      "name" : "Temperature measurement - Slot: 1 Index: 5 Location: Mezzanine air outlet temperatur"
    },
    "value" : "1.0"
  }, {
    "tags" : {
      "display-name" : "Hardware Element Status",
      "im.dstype.displaytype" : "state",
      "im.identity-tags" : "name",
      "im.name" : "hardware-element-status",
      "live-config" : "true",
      "name" : "Temperature measurement - Slot: 1 Index: 6 Location: Mezzanine air outlet temperatur"
    },
    "value" : "1.0"
  }, {
    "tags" : {
      "display-name" : "Hardware Element Status",
      "im.dstype.displaytype" : "state",
      "im.identity-tags" : "name",
      "im.name" : "hardware-element-status",
      "live-config" : "true",
      "name" : "Temperature measurement - Slot: 1 Index: 7 Location: Mezzanine HSB temperature 1"
    },
    "value" : "1.0"
  }, {
    "tags" : {
      "display-name" : "Hardware Element Status",
      "im.dstype.displaytype" : "state",
      "im.identity-tags" : "name",
      "im.name" : "hardware-element-status",
      "live-config" : "true",
      "name" : "Temperature measurement - Slot: 1 Index: 8 Location: Mezzanine HSB temperature 2"
    },
    "value" : "1.0"
  }, {
    "tags" : {
      "display-name" : "Hardware Element Status",
      "im.dstype.displaytype" : "state",
      "im.identity-tags" : "name",
      "im.name" : "hardware-element-status",
      "live-config" : "true",
      "name" : "Temperature measurement - Slot: 1 Index: 9 Location: Mezzanine Octeon temperature 1"
    },
    "value" : "1.0"
  }, {
    "tags" : {
      "display-name" : "Hardware Elements",
      "im.dstype.displaytype" : "state",
      "im.identity-tags" : "name",
      "im.name" : "hardware-element-status",
      "live-config" : "true",
      "name" : "fan-1"
    },
    "value" : "1.0"
  }, {
    "tags" : {
      "display-name" : "Hardware Elements",
      "im.dstype.displaytype" : "state",
      "im.identity-tags" : "name",
      "im.name" : "hardware-element-status",
      "live-config" : "true",
      "name" : "fan-2"
    },
    "value" : "1.0"
  }, {
    "tags" : {
      "display-name" : "Hardware Elements",
      "im.dstype.displaytype" : "state",
      "im.identity-tags" : "name",
      "im.name" : "hardware-element-status",
      "live-config" : "true",
      "name" : "fan-3"
    },
    "value" : "1.0"
  }, {
    "tags" : {
      "display-name" : "Hardware Elements",
      "im.dstype.displaytype" : "state",
      "im.identity-tags" : "name",
      "im.name" : "hardware-element-status",
      "live-config" : "true",
      "name" : "fan-4"
    },
    "value" : "1.0"
  }, {
    "tags" : {
      "display-name" : "Hardware Elements",
      "im.dstype.displaytype" : "state",
      "im.identity-tags" : "name",
      "im.name" : "hardware-element-status",
      "live-config" : "true",
      "name" : "psu-1"
    },
    "value" : "1.0"
  }, {
    "tags" : {
      "display-name" : "Hardware Elements",
      "im.dstype.displaytype" : "state",
      "im.identity-tags" : "name",
      "im.name" : "hardware-element-status",
      "live-config" : "true",
      "name" : "psu-2"
    },
    "value" : "1.0"
  } ]
}
