{
  "command" : "panos-show-wildfire-status",
  "metrics" : [ {
    "tags" : {
      "display-name" : "WildFire Cloud Connected?",
      "im.dstype" : "gauge",
      "im.dstype.displaytype" : "boolean",
      "im.identity-tags" : "name",
      "im.metric-type" : "ts",
      "im.name" : "wildfire-connected",
      "im.step" : "3600",
      "live-config" : "true",
      "name" : "0"
    },
    "value" : "1.0"
  } ]
}
