{
  "command" : "panos-show-user-user-id-agent-state",
  "metrics" : [ {
    "tags" : {
      "display-name" : "User-ID Agents",
      "im.dstype" : "gauge",
      "im.dstype.displaytype" : "state",
      "im.identity-tags" : "name",
      "im.metric-type" : "ts",
      "im.name" : "userid_agent_state",
      "im.step" : "60",
      "live-config" : "true",
      "name" : "Other USERID(vsys: vsys1) Host: 1.1.1.2:222"
    },
    "value" : "1.0"
  }, {
    "tags" : {
      "display-name" : "User-ID Agents",
      "im.dstype" : "gauge",
      "im.dstype.displaytype" : "state",
      "im.identity-tags" : "name",
      "im.metric-type" : "ts",
      "im.name" : "userid_agent_state",
      "im.step" : "60",
      "live-config" : "true",
      "name" : "Some USERID(vsys: vsys1) Host: 1.1.1.1:222"
    },
    "value" : "0.0"
  } ]
}
