{
  "command" : "chkp-asg-route-novsx",
  "metrics" : [ {
    "tags" : {
      "display-name" : "Directly Connected Networks",
      "im.metric-type" : "runtime",
      "im.name" : "connected-networks-table",
      "live-config" : "true"
    },
    "value" : [ {
      "network" : "127.0.0.0",
      "mask" : "8"
    }, {
      "mask" : "24",
      "network" : "192.0.2.0"
    }, {
      "network" : "192.168.197.0",
      "mask" : "24"
    }, {
      "mask" : "24",
      "network" : "60.0.0.0"
    } ]
  }, {
    "tags" : {
      "im.metric-type" : "runtime",
      "im.name" : "routes-missing-kernel"
    },
    "value" : [ {
      "next-hop" : "192.168.197.254",
      "network" : "1.1.1.0",
      "mask" : "24"
    } ]
  }, {
    "tags" : {
      "im.metric-type" : "runtime",
      "im.name" : "static-routing-table"
    },
    "value" : [ {
      "next-hop" : "192.168.197.254",
      "network" : "1.0.0.0",
      "mask" : "24"
    }, {
      "next-hop" : "192.168.197.254",
      "mask" : "24",
      "network" : "1.1.1.0"
    } ]
  } ]
}
