{
  "command" : "chkp-asg-policy-verify-v-novsx",
  "metrics" : [ {
    "tags" : {
      "im.dstype" : "gauge",
      "im.metric-type" : "ts",
      "im.name" : "policy-verification-ok",
      "name" : "chassis: 2 blade: 01"
    },
    "value" : "0.0"
  }, {
    "tags" : {
      "im.dstype" : "gauge",
      "im.metric-type" : "ts",
      "im.name" : "policy-verification-ok",
      "name" : "chassis: 2 blade: 02"
    },
    "value" : "1.0"
  } ]
}
