{
  "command" : "cpembedded-clish_show_snmp_agent_version",
  "metrics" : [ {
    "tags" : {
      "im.metric-type" : "runtime",
      "im.name" : "snmp-version"
    },
    "value" : {
      "value" : "v3"
    }
  } ]
}
