{
  "command" : "cpembedded-clish_show_ntp_servers",
  "metrics" : [ {
    "tags" : {
      "display-name" : "NTP Servers",
      "im.metric-type" : "runtime",
      "im.name" : "ntp-servers",
      "live-config" : "true"
    },
    "value" : [ {
      "ipaddress" : "192.168.245.199",
      "type" : "primary"
    }, {
      "ipaddress" : "192.168.10.199",
      "type" : "secondary"
    } ]
  } ]
}
