{
  "command" : "lspci",
  "metrics" : [ {
    "tags" : {
      "im.metric-type" : "runtime",
      "im.name" : "interface-hw"
    },
    "value" : [ {
      "interface-model" : " Intel Corporation 82599ES 10-Gigabit SFI/SFP+ Network Connection (rev 01)"
    }, {
      "interface-model" : " Intel Corporation 82599ES 10-Gigabit SFI/SFP+ Network Connection (rev 01)"
    }, {
      "interface-model" : " Intel Corporation 82574L Gigabit Network Connection"
    }, {
      "interface-model" : " Intel Corporation 82574L Gigabit Network Connection"
    }, {
      "interface-model" : " Intel Corporation 82580 Gigabit Network Connection (rev 01)"
    }, {
      "interface-model" : " Intel Corporation 82580 Gigabit Network Connection (rev 01)"
    }, {
      "interface-model" : " Intel Corporation 82580 Gigabit Network Connection (rev 01)"
    }, {
      "interface-model" : " Intel Corporation 82580 Gigabit Network Connection (rev 01)"
    }, {
      "interface-model" : " Intel Corporation 82580 Gigabit Network Connection (rev 01)"
    }, {
      "interface-model" : " Intel Corporation 82580 Gigabit Network Connection (rev 01)"
    }, {
      "interface-model" : " Intel Corporation 82580 Gigabit Network Connection (rev 01)"
    }, {
      "interface-model" : " Intel Corporation 82580 Gigabit Network Connection (rev 01)"
    }, {
      "interface-model" : " Intel Corporation 82599ES 10-Gigabit SFI/SFP+ Network Connection (rev 01)"
    }, {
      "interface-model" : " Intel Corporation 82599ES 10-Gigabit SFI/SFP+ Network Connection (rev 01)"
    } ]
  } ]
}
