{
  "command" : "ios-show-inventory",
  "metrics" : [ {
    "tags" : {
      "display-name" : "Serial Numbers",
      "im.metric-type" : "runtime",
      "im.name" : "serial-numbers",
      "live-config" : "true"
    },
    "value" : [ {
      "name" : "WS-C3750G-24TS-S1U",
      "serial-number" : "FOC12345679"
    }, {
      "name" : "GLC-SX-MMD",
      "serial-number" : "GLB48199DT5"
    }, {
      "name" : "GLC-SX-MMD",
      "serial-number" : "GLB48199DSL"
    }, {
      "serial-number" : "MTC123456CK",
      "name" : "Unspecified"
    }, {
      "name" : "Unspecified",
      "serial-number" : "GLB42099JV9"
    } ]
  } ]
}
