{
  "command" : "unix-arp_an",
  "metrics" : [ {
    "tags" : {
      "im.metric-type" : "runtime",
      "im.name" : "arp-table"
    },
    "value" : [ {
      "targetip" : "10.3.3.76",
      "mac" : "00:0C:29:03:57:7F",
      "success" : "1",
      "interface" : "eth0"
    }, {
      "mac" : "00:50:56:80:25:22",
      "success" : "1",
      "targetip" : "10.3.3.154",
      "interface" : "eth0"
    }, {
      "success" : "1",
      "mac" : "08:CC:68:0C:B6:C5",
      "interface" : "eth0",
      "targetip" : "10.3.3.1"
    }, {
      "targetip" : "10.10.6.254",
      "success" : "1",
      "mac" : "00:12:12:12:12:12",
      "interface" : "eth2"
    }, {
      "mac" : "00:50:56:80:79:BA",
      "targetip" : "10.3.3.62",
      "interface" : "eth0",
      "success" : "1"
    }, {
      "success" : "0",
      "targetip" : "10.3.3.211",
      "interface" : "eth0"
    }, {
      "targetip" : "10.3.3.155",
      "interface" : "eth0",
      "mac" : "00:50:56:A0:36:E7",
      "success" : "1"
    }, {
      "mac" : "00:50:56:A0:D6:9A",
      "interface" : "eth0",
      "success" : "1",
      "targetip" : "10.3.3.25"
    }, {
      "mac" : "00:0C:29:2F:39:7C",
      "success" : "1",
      "targetip" : "10.3.3.75",
      "interface" : "eth0"
    }, {
      "targetip" : "192.168.168.2",
      "success" : "1",
      "interface" : "eth4",
      "mac" : "00:0C:29:0A:DB:CB"
    }, {
      "success" : "1",
      "interface" : "eth0",
      "targetip" : "10.3.3.61",
      "mac" : "00:50:56:80:1A:54"
    }, {
      "mac" : "00:50:56:A0:C4:66",
      "success" : "1",
      "interface" : "eth0",
      "targetip" : "10.3.3.153"
    }, {
      "targetip" : "10.3.3.148",
      "success" : "1",
      "mac" : "00:50:56:80:58:03",
      "interface" : "eth0"
    }, {
      "mac" : "00:0C:29:0A:DB:A3",
      "interface" : "eth0",
      "success" : "1",
      "targetip" : "10.3.3.72"
    } ]
  }, {
    "tags" : {
      "im.metric-type" : "runtime",
      "im.name" : "static-arp"
    },
    "value" : [ {
      "mac-address" : "00:12:12:12:12:12",
      "ip-address" : "10.10.6.254"
    } ]
  }, {
    "tags" : {
      "im.dstype" : "gauge",
      "im.metric-type" : "ts",
      "im.name" : "arp-total-entries"
    },
    "value" : "14.0"
  } ]
}
