{
  "command" : "unix-ps_auxw",
  "metrics" : [ {
    "tags" : {
      "command" : "-bash",
      "im.dstype" : "gauge",
      "im.metric-type" : "ts",
      "im.name" : "process-cpu",
      "name" : "14907",
      "process-name" : "-bash"
    },
    "value" : "0.0"
  }, {
    "tags" : {
      "command" : "-bash",
      "im.dstype" : "gauge",
      "im.metric-type" : "ts",
      "im.name" : "process-cpu",
      "name" : "21797",
      "process-name" : "-bash"
    },
    "value" : "1.4"
  }, {
    "tags" : {
      "command" : "-bash",
      "im.dstype" : "gauge",
      "im.metric-type" : "ts",
      "im.name" : "process-cpu",
      "name" : "22721",
      "process-name" : "-bash"
    },
    "value" : "0.0"
  }, {
    "tags" : {
      "command" : "-bash",
      "im.dstype" : "gauge",
      "im.metric-type" : "ts",
      "im.name" : "process-cpu",
      "name" : "27641",
      "process-name" : "-bash"
    },
    "value" : "0.9"
  }, {
    "tags" : {
      "command" : "-bash",
      "im.dstype" : "gauge",
      "im.metric-type" : "ts",
      "im.name" : "process-cpu",
      "name" : "27813",
      "process-name" : "-bash"
    },
    "value" : "1.2"
  }, {
    "tags" : {
      "command" : "-bash",
      "im.dstype" : "gauge",
      "im.metric-type" : "ts",
      "im.name" : "process-cpu",
      "name" : "30910",
      "process-name" : "-bash"
    },
    "value" : "0.9"
  }, {
    "tags" : {
      "command" : "-bash",
      "im.dstype" : "gauge",
      "im.metric-type" : "ts",
      "im.name" : "process-cpu",
      "name" : "4651",
      "process-name" : "-bash"
    },
    "value" : "0.0"
  }, {
    "tags" : {
      "command" : "-bash",
      "im.dstype" : "gauge",
      "im.metric-type" : "ts",
      "im.name" : "process-cpu",
      "name" : "7377",
      "process-name" : "-bash"
    },
    "value" : "0.0"
  }, {
    "tags" : {
      "command" : "-bash",
      "im.dstype" : "gauge",
      "im.metric-type" : "ts",
      "im.name" : "process-cpu",
      "name" : "8519",
      "process-name" : "-bash"
    },
    "value" : "0.0"
  }, {
    "tags" : {
      "command" : "/bin/clishd default",
      "im.dstype" : "gauge",
      "im.metric-type" : "ts",
      "im.name" : "process-cpu",
      "name" : "5155",
      "process-name" : "/bin/clishd"
    },
    "value" : "0.0"
  }, {
    "tags" : {
      "command" : "/bin/csh -f",
      "im.dstype" : "gauge",
      "im.metric-type" : "ts",
      "im.name" : "process-cpu",
      "name" : "6536",
      "process-name" : "/bin/csh"
    },
    "value" : "0.0"
  }, {
    "tags" : {
      "command" : "/bin/monitord",
      "im.dstype" : "gauge",
      "im.metric-type" : "ts",
      "im.name" : "process-cpu",
      "name" : "5088",
      "process-name" : "/bin/monitord"
    },
    "value" : "0.0"
  }, {
    "tags" : {
      "command" : "-bash",
      "im.dstype" : "gauge",
      "im.metric-type" : "ts",
      "im.name" : "process-memory",
      "name" : "14907",
      "process-name" : "-bash"
    },
    "value" : "0.1"
  }, {
    "tags" : {
      "command" : "-bash",
      "im.dstype" : "gauge",
      "im.metric-type" : "ts",
      "im.name" : "process-memory",
      "name" : "21797",
      "process-name" : "-bash"
    },
    "value" : "0.2"
  }, {
    "tags" : {
      "command" : "-bash",
      "im.dstype" : "gauge",
      "im.metric-type" : "ts",
      "im.name" : "process-memory",
      "name" : "27641",
      "process-name" : "-bash"
    },
    "value" : "0.2"
  }, {
    "tags" : {
      "command" : "/bin/clish",
      "im.dstype" : "gauge",
      "im.metric-type" : "ts",
      "im.name" : "process-cpu",
      "name" : "10402",
      "process-name" : "/bin/clish"
    },
    "value" : "0.0"
  }, {
    "tags" : {
      "command" : "/bin/cloningd",
      "im.dstype" : "gauge",
      "im.metric-type" : "ts",
      "im.name" : "process-cpu",
      "name" : "5153",
      "process-name" : "/bin/cloningd"
    },
    "value" : "0.0"
  }, {
    "tags" : {
      "command" : "/bin/confd",
      "im.dstype" : "gauge",
      "im.metric-type" : "ts",
      "im.name" : "process-cpu",
      "name" : "5083",
      "process-name" : "/bin/confd"
    },
    "value" : "0.1"
  }, {
    "tags" : {
      "command" : "/bin/csh -fb",
      "im.dstype" : "gauge",
      "im.metric-type" : "ts",
      "im.name" : "process-cpu",
      "name" : "5472",
      "process-name" : "/bin/csh"
    },
    "value" : "0.0"
  }, {
    "tags" : {
      "command" : "-bash",
      "im.dstype" : "gauge",
      "im.metric-type" : "ts",
      "im.name" : "process-memory",
      "name" : "22721",
      "process-name" : "-bash"
    },
    "value" : "0.1"
  }, {
    "tags" : {
      "command" : "-bash",
      "im.dstype" : "gauge",
      "im.metric-type" : "ts",
      "im.name" : "process-memory",
      "name" : "27813",
      "process-name" : "-bash"
    },
    "value" : "0.2"
  }, {
    "tags" : {
      "command" : "-bash",
      "im.dstype" : "gauge",
      "im.metric-type" : "ts",
      "im.name" : "process-memory",
      "name" : "30910",
      "process-name" : "-bash"
    },
    "value" : "0.2"
  }, {
    "tags" : {
      "command" : "-bash",
      "im.dstype" : "gauge",
      "im.metric-type" : "ts",
      "im.name" : "process-memory",
      "name" : "4651",
      "process-name" : "-bash"
    },
    "value" : "0.1"
  }, {
    "tags" : {
      "command" : "-bash",
      "im.dstype" : "gauge",
      "im.metric-type" : "ts",
      "im.name" : "process-memory",
      "name" : "7377",
      "process-name" : "-bash"
    },
    "value" : "0.1"
  }, {
    "tags" : {
      "command" : "-bash",
      "im.dstype" : "gauge",
      "im.metric-type" : "ts",
      "im.name" : "process-memory",
      "name" : "8519",
      "process-name" : "-bash"
    },
    "value" : "0.1"
  }, {
    "tags" : {
      "command" : "/bin/bash",
      "im.dstype" : "gauge",
      "im.metric-type" : "ts",
      "im.name" : "process-cpu",
      "name" : "15380",
      "process-name" : "/bin/bash"
    },
    "value" : "0.0"
  }, {
    "tags" : {
      "command" : "/bin/bash",
      "im.dstype" : "gauge",
      "im.metric-type" : "ts",
      "im.name" : "process-cpu",
      "name" : "31280",
      "process-name" : "/bin/bash"
    },
    "value" : "0.0"
  }, {
    "tags" : {
      "command" : "/bin/bash",
      "im.dstype" : "gauge",
      "im.metric-type" : "ts",
      "im.name" : "process-memory",
      "name" : "15380",
      "process-name" : "/bin/bash"
    },
    "value" : "0.0"
  }, {
    "tags" : {
      "command" : "/bin/bash",
      "im.dstype" : "gauge",
      "im.metric-type" : "ts",
      "im.name" : "process-memory",
      "name" : "31280",
      "process-name" : "/bin/bash"
    },
    "value" : "0.1"
  }, {
    "tags" : {
      "command" : "/bin/clish",
      "im.dstype" : "gauge",
      "im.metric-type" : "ts",
      "im.name" : "process-memory",
      "name" : "10402",
      "process-name" : "/bin/clish"
    },
    "value" : "0.3"
  }, {
    "tags" : {
      "command" : "/bin/cloningd",
      "im.dstype" : "gauge",
      "im.metric-type" : "ts",
      "im.name" : "process-memory",
      "name" : "5153",
      "process-name" : "/bin/cloningd"
    },
    "value" : "0.7"
  }, {
    "tags" : {
      "command" : "/bin/csh -fb",
      "im.dstype" : "gauge",
      "im.metric-type" : "ts",
      "im.name" : "process-memory",
      "name" : "5472",
      "process-name" : "/bin/csh"
    },
    "value" : "0.0"
  }, {
    "tags" : {
      "command" : "/bin/pm",
      "im.dstype" : "gauge",
      "im.metric-type" : "ts",
      "im.name" : "process-cpu",
      "name" : "5042",
      "process-name" : "/bin/pm"
    },
    "value" : "0.0"
  }, {
    "tags" : {
      "command" : "/bin/rconfd",
      "im.dstype" : "gauge",
      "im.metric-type" : "ts",
      "im.name" : "process-cpu",
      "name" : "5087",
      "process-name" : "/bin/rconfd"
    },
    "value" : "0.0"
  }, {
    "tags" : {
      "command" : "/bin/routed",
      "im.dstype" : "gauge",
      "im.metric-type" : "ts",
      "im.name" : "process-cpu",
      "name" : "7096",
      "process-name" : "/bin/routed"
    },
    "value" : "23.3"
  }, {
    "tags" : {
      "command" : "/bin/routed -i 2 -f /etc/routed2.conf -h",
      "im.dstype" : "gauge",
      "im.metric-type" : "ts",
      "im.name" : "process-cpu",
      "name" : "7120",
      "process-name" : "/bin/routed"
    },
    "value" : "0.6"
  }, {
    "tags" : {
      "command" : "/bin/routed -i default -f /etc/routed0.conf -h",
      "im.dstype" : "gauge",
      "im.metric-type" : "ts",
      "im.name" : "process-cpu",
      "name" : "7118",
      "process-name" : "/bin/routed"
    },
    "value" : "0.5"
  }, {
    "tags" : {
      "command" : "/bin/routed -i default -f /etc/routed0.conf -h",
      "im.dstype" : "gauge",
      "im.metric-type" : "ts",
      "im.name" : "process-memory",
      "name" : "7118",
      "process-name" : "/bin/routed"
    },
    "value" : "0.8"
  }, {
    "tags" : {
      "command" : "/bin/searchd -niceboost",
      "im.dstype" : "gauge",
      "im.metric-type" : "ts",
      "im.name" : "process-cpu",
      "name" : "5084",
      "process-name" : "/bin/searchd"
    },
    "value" : "0.0"
  }, {
    "tags" : {
      "command" : "/bin/vmtoolsd -p",
      "im.dstype" : "gauge",
      "im.metric-type" : "ts",
      "im.name" : "process-cpu",
      "name" : "5373",
      "process-name" : "/bin/vmtoolsd"
    },
    "value" : "0.0"
  }, {
    "tags" : {
      "command" : "/opt/CPda/bin/DAService",
      "im.dstype" : "gauge",
      "im.metric-type" : "ts",
      "im.name" : "process-cpu",
      "name" : "31285",
      "process-name" : "/opt/CPda/bin/DAService"
    },
    "value" : "0.0"
  }, {
    "tags" : {
      "command" : "/opt/CPshrd-R77/bin/cprid",
      "im.dstype" : "gauge",
      "im.metric-type" : "ts",
      "im.name" : "process-cpu",
      "name" : "5488",
      "process-name" : "/opt/CPshrd-R77/bin/cprid"
    },
    "value" : "0.0"
  }, {
    "tags" : {
      "command" : "/usr/bin/mpstat -P ALL 1",
      "im.dstype" : "gauge",
      "im.metric-type" : "ts",
      "im.name" : "process-cpu",
      "name" : "7811",
      "process-name" : "/usr/bin/mpstat"
    },
    "value" : "0.0"
  }, {
    "tags" : {
      "command" : "/opt/CPshrd-R77/bin/cprid",
      "im.dstype" : "gauge",
      "im.metric-type" : "ts",
      "im.name" : "process-memory",
      "name" : "5488",
      "process-name" : "/opt/CPshrd-R77/bin/cprid"
    },
    "value" : "0.3"
  }, {
    "tags" : {
      "command" : "/opt/CPshrd-R77/database/postgresql/bin/postgres -D",
      "im.dstype" : "gauge",
      "im.metric-type" : "ts",
      "im.name" : "process-cpu",
      "name" : "5671",
      "process-name" : "/opt/CPshrd-R77/database/postgresql/bin/postgres"
    },
    "value" : "0.0"
  }, {
    "tags" : {
      "command" : "/opt/CPshrd-R77/bin/cpwd",
      "im.dstype" : "gauge",
      "im.metric-type" : "ts",
      "im.name" : "process-memory",
      "name" : "4283",
      "process-name" : "/opt/CPshrd-R77/bin/cpwd"
    },
    "value" : "0.3"
  }, {
    "tags" : {
      "command" : "/opt/CPshrd-R77/database/postgresql/bin/postgres -D",
      "im.dstype" : "gauge",
      "im.metric-type" : "ts",
      "im.name" : "process-memory",
      "name" : "5671",
      "process-name" : "/opt/CPshrd-R77/database/postgresql/bin/postgres"
    },
    "value" : "0.1"
  }, {
    "tags" : {
      "command" : "/sbin/agetty 9600",
      "im.dstype" : "gauge",
      "im.metric-type" : "ts",
      "im.name" : "process-cpu",
      "name" : "12012",
      "process-name" : "/sbin/agetty"
    },
    "value" : "0.0"
  }, {
    "tags" : {
      "command" : "/sbin/agetty 9600",
      "im.dstype" : "gauge",
      "im.metric-type" : "ts",
      "im.name" : "process-cpu",
      "name" : "15378",
      "process-name" : "/sbin/agetty"
    },
    "value" : "0.0"
  }, {
    "tags" : {
      "command" : "/sbin/agetty 9600",
      "im.dstype" : "gauge",
      "im.metric-type" : "ts",
      "im.name" : "process-cpu",
      "name" : "15379",
      "process-name" : "/sbin/agetty"
    },
    "value" : "0.0"
  }, {
    "tags" : {
      "command" : "/sbin/agetty 9600 tty4",
      "im.dstype" : "gauge",
      "im.metric-type" : "ts",
      "im.name" : "process-cpu",
      "name" : "15396",
      "process-name" : "/sbin/agetty"
    },
    "value" : "0.0"
  }, {
    "tags" : {
      "command" : "/sbin/udevd",
      "im.dstype" : "gauge",
      "im.metric-type" : "ts",
      "im.name" : "process-cpu",
      "name" : "661",
      "process-name" : "/sbin/udevd"
    },
    "value" : "0.0"
  }, {
    "tags" : {
      "command" : "/sbin/agetty 9600",
      "im.dstype" : "gauge",
      "im.metric-type" : "ts",
      "im.name" : "process-memory",
      "name" : "15378",
      "process-name" : "/sbin/agetty"
    },
    "value" : "0.0"
  }, {
    "tags" : {
      "command" : "/sbin/agetty 9600",
      "im.dstype" : "gauge",
      "im.metric-type" : "ts",
      "im.name" : "process-memory",
      "name" : "15379",
      "process-name" : "/sbin/agetty"
    },
    "value" : "0.0"
  }, {
    "tags" : {
      "command" : "/sbin/agetty 9600 tty4",
      "im.dstype" : "gauge",
      "im.metric-type" : "ts",
      "im.name" : "process-memory",
      "name" : "15396",
      "process-name" : "/sbin/agetty"
    },
    "value" : "0.0"
  }, {
    "tags" : {
      "command" : "/sbin/udevd",
      "im.dstype" : "gauge",
      "im.metric-type" : "ts",
      "im.name" : "process-memory",
      "name" : "661",
      "process-name" : "/sbin/udevd"
    },
    "value" : "0.0"
  }, {
    "tags" : {
      "command" : "/usr/bin/mpstat -P ALL 1",
      "im.dstype" : "gauge",
      "im.metric-type" : "ts",
      "im.name" : "process-memory",
      "name" : "7811",
      "process-name" : "/usr/bin/mpstat"
    },
    "value" : "0.0"
  }, {
    "tags" : {
      "command" : "/usr/bin/tclsh",
      "im.dstype" : "gauge",
      "im.metric-type" : "ts",
      "im.name" : "process-cpu",
      "name" : "5158",
      "process-name" : "/usr/bin/tclsh"
    },
    "value" : "0.0"
  }, {
    "tags" : {
      "command" : "/usr/sbin/acpid",
      "im.dstype" : "gauge",
      "im.metric-type" : "ts",
      "im.name" : "process-memory",
      "name" : "5184",
      "process-name" : "/usr/sbin/acpid"
    },
    "value" : "0.0"
  }, {
    "tags" : {
      "command" : "/usr/sbin/lsof",
      "im.dstype" : "gauge",
      "im.metric-type" : "ts",
      "im.name" : "process-cpu",
      "name" : "2476",
      "process-name" : "/usr/sbin/lsof"
    },
    "value" : "0.2"
  }, {
    "tags" : {
      "command" : "/usr/sbin/lsof",
      "im.dstype" : "gauge",
      "im.metric-type" : "ts",
      "im.name" : "process-cpu",
      "name" : "2480",
      "process-name" : "/usr/sbin/lsof"
    },
    "value" : "0.0"
  }, {
    "tags" : {
      "command" : "/usr/sbin/lsof",
      "im.dstype" : "gauge",
      "im.metric-type" : "ts",
      "im.name" : "process-cpu",
      "name" : "3636",
      "process-name" : "/usr/sbin/lsof"
    },
    "value" : "0.3"
  }, {
    "tags" : {
      "command" : "/usr/sbin/lsof",
      "im.dstype" : "gauge",
      "im.metric-type" : "ts",
      "im.name" : "process-cpu",
      "name" : "3640",
      "process-name" : "/usr/sbin/lsof"
    },
    "value" : "0.0"
  }, {
    "tags" : {
      "command" : "/usr/sbin/lsof",
      "im.dstype" : "gauge",
      "im.metric-type" : "ts",
      "im.name" : "process-memory",
      "name" : "2480",
      "process-name" : "/usr/sbin/lsof"
    },
    "value" : "0.0"
  }, {
    "tags" : {
      "command" : "/usr/sbin/snmpd -f -c",
      "im.dstype" : "gauge",
      "im.metric-type" : "ts",
      "im.name" : "process-cpu",
      "name" : "20738",
      "process-name" : "/usr/sbin/snmpd"
    },
    "value" : "0.0"
  }, {
    "tags" : {
      "command" : "/usr/sbin/sshd",
      "im.dstype" : "gauge",
      "im.metric-type" : "ts",
      "im.name" : "process-cpu",
      "name" : "5237",
      "process-name" : "/usr/sbin/sshd"
    },
    "value" : "0.0"
  }, {
    "tags" : {
      "command" : "/web/cpshared/web/Apache/2.2.0/bin/httpd2 -k start -f /web/conf/httpd2.conf -D",
      "im.dstype" : "gauge",
      "im.metric-type" : "ts",
      "im.name" : "process-cpu",
      "name" : "11509",
      "process-name" : "/web/cpshared/web/Apache/2.2.0/bin/httpd2"
    },
    "value" : "0.0"
  }, {
    "tags" : {
      "command" : "/web/cpshared/web/Apache/2.2.0/bin/httpd2 -k start -f /web/conf/httpd2.conf -D",
      "im.dstype" : "gauge",
      "im.metric-type" : "ts",
      "im.name" : "process-cpu",
      "name" : "24390",
      "process-name" : "/web/cpshared/web/Apache/2.2.0/bin/httpd2"
    },
    "value" : "0.0"
  }, {
    "tags" : {
      "command" : "/web/cpshared/web/Apache/2.2.0/bin/httpd2 -k start -f /web/conf/httpd2.conf -D",
      "im.dstype" : "gauge",
      "im.metric-type" : "ts",
      "im.name" : "process-cpu",
      "name" : "5086",
      "process-name" : "/web/cpshared/web/Apache/2.2.0/bin/httpd2"
    },
    "value" : "0.0"
  }, {
    "tags" : {
      "command" : "[aio/0]",
      "im.dstype" : "gauge",
      "im.metric-type" : "ts",
      "im.name" : "process-cpu",
      "name" : "272",
      "process-name" : "[aio/0]"
    },
    "value" : "0.0"
  }, {
    "tags" : {
      "command" : "[aio/0]",
      "im.dstype" : "gauge",
      "im.metric-type" : "ts",
      "im.name" : "process-memory",
      "name" : "272",
      "process-name" : "[aio/0]"
    },
    "value" : "0.0"
  }, {
    "tags" : {
      "command" : "[aio/1]",
      "im.dstype" : "gauge",
      "im.metric-type" : "ts",
      "im.name" : "process-cpu",
      "name" : "273",
      "process-name" : "[aio/1]"
    },
    "value" : "0.0"
  }, {
    "tags" : {
      "command" : "[aio/2]",
      "im.dstype" : "gauge",
      "im.metric-type" : "ts",
      "im.name" : "process-cpu",
      "name" : "274",
      "process-name" : "[aio/2]"
    },
    "value" : "0.0"
  }, {
    "tags" : {
      "command" : "[ata/1]",
      "im.dstype" : "gauge",
      "im.metric-type" : "ts",
      "im.name" : "process-cpu",
      "name" : "556",
      "process-name" : "[ata/1]"
    },
    "value" : "0.0"
  }, {
    "tags" : {
      "command" : "[ata_aux]",
      "im.dstype" : "gauge",
      "im.metric-type" : "ts",
      "im.name" : "process-cpu",
      "name" : "558",
      "process-name" : "[ata_aux]"
    },
    "value" : "0.0"
  }, {
    "tags" : {
      "command" : "[cqueue/1]",
      "im.dstype" : "gauge",
      "im.metric-type" : "ts",
      "im.name" : "process-cpu",
      "name" : "187",
      "process-name" : "[cqueue/1]"
    },
    "value" : "0.0"
  }, {
    "tags" : {
      "command" : "[cqueue/2]",
      "im.dstype" : "gauge",
      "im.metric-type" : "ts",
      "im.name" : "process-cpu",
      "name" : "188",
      "process-name" : "[cqueue/2]"
    },
    "value" : "0.0"
  }, {
    "tags" : {
      "command" : "[events/0]",
      "im.dstype" : "gauge",
      "im.metric-type" : "ts",
      "im.name" : "process-cpu",
      "name" : "11",
      "process-name" : "[events/0]"
    },
    "value" : "0.0"
  }, {
    "tags" : {
      "command" : "[events/2]",
      "im.dstype" : "gauge",
      "im.metric-type" : "ts",
      "im.name" : "process-cpu",
      "name" : "13",
      "process-name" : "[events/2]"
    },
    "value" : "0.0"
  }, {
    "tags" : {
      "command" : "[kauditd]",
      "im.dstype" : "gauge",
      "im.metric-type" : "ts",
      "im.name" : "process-cpu",
      "name" : "623",
      "process-name" : "[kauditd]"
    },
    "value" : "0.0"
  }, {
    "tags" : {
      "command" : "[khubd]",
      "im.dstype" : "gauge",
      "im.metric-type" : "ts",
      "im.name" : "process-cpu",
      "name" : "191",
      "process-name" : "[khubd]"
    },
    "value" : "0.0"
  }, {
    "tags" : {
      "command" : "[kjournald]",
      "im.dstype" : "gauge",
      "im.metric-type" : "ts",
      "im.name" : "process-cpu",
      "name" : "1853",
      "process-name" : "[kjournald]"
    },
    "value" : "0.0"
  }, {
    "tags" : {
      "command" : "/bin/clishd default",
      "im.dstype" : "gauge",
      "im.metric-type" : "ts",
      "im.name" : "process-memory",
      "name" : "5155",
      "process-name" : "/bin/clishd"
    },
    "value" : "0.4"
  }, {
    "tags" : {
      "command" : "/usr/bin/mpstat -P ALL 1",
      "im.dstype" : "gauge",
      "im.metric-type" : "ts",
      "im.name" : "process-cpu",
      "name" : "7798",
      "process-name" : "/usr/bin/mpstat"
    },
    "value" : "0.0"
  }, {
    "tags" : {
      "command" : "/bin/confd",
      "im.dstype" : "gauge",
      "im.metric-type" : "ts",
      "im.name" : "process-memory",
      "name" : "5083",
      "process-name" : "/bin/confd"
    },
    "value" : "1.3"
  }, {
    "tags" : {
      "command" : "/bin/csh -f",
      "im.dstype" : "gauge",
      "im.metric-type" : "ts",
      "im.name" : "process-memory",
      "name" : "6536",
      "process-name" : "/bin/csh"
    },
    "value" : "0.1"
  }, {
    "tags" : {
      "command" : "/bin/monitord",
      "im.dstype" : "gauge",
      "im.metric-type" : "ts",
      "im.name" : "process-memory",
      "name" : "5088",
      "process-name" : "/bin/monitord"
    },
    "value" : "0.4"
  }, {
    "tags" : {
      "command" : "/bin/pm",
      "im.dstype" : "gauge",
      "im.metric-type" : "ts",
      "im.name" : "process-memory",
      "name" : "5042",
      "process-name" : "/bin/pm"
    },
    "value" : "0.6"
  }, {
    "tags" : {
      "command" : "/bin/rconfd",
      "im.dstype" : "gauge",
      "im.metric-type" : "ts",
      "im.name" : "process-memory",
      "name" : "5087",
      "process-name" : "/bin/rconfd"
    },
    "value" : "0.7"
  }, {
    "tags" : {
      "command" : "/bin/routed",
      "im.dstype" : "gauge",
      "im.metric-type" : "ts",
      "im.name" : "process-memory",
      "name" : "7096",
      "process-name" : "/bin/routed"
    },
    "value" : "0.8"
  }, {
    "tags" : {
      "command" : "/bin/routed -i 2 -f /etc/routed2.conf -h",
      "im.dstype" : "gauge",
      "im.metric-type" : "ts",
      "im.name" : "process-memory",
      "name" : "7120",
      "process-name" : "/bin/routed"
    },
    "value" : "0.8"
  }, {
    "tags" : {
      "command" : "/bin/searchd -niceboost",
      "im.dstype" : "gauge",
      "im.metric-type" : "ts",
      "im.name" : "process-memory",
      "name" : "5084",
      "process-name" : "/bin/searchd"
    },
    "value" : "0.7"
  }, {
    "tags" : {
      "command" : "/bin/vmtoolsd -p",
      "im.dstype" : "gauge",
      "im.metric-type" : "ts",
      "im.name" : "process-memory",
      "name" : "5373",
      "process-name" : "/bin/vmtoolsd"
    },
    "value" : "0.1"
  }, {
    "tags" : {
      "command" : "/opt/CPda/bin/DAService",
      "im.dstype" : "gauge",
      "im.metric-type" : "ts",
      "im.name" : "process-memory",
      "name" : "31285",
      "process-name" : "/opt/CPda/bin/DAService"
    },
    "value" : "10.8"
  }, {
    "tags" : {
      "command" : "/opt/CPshrd-R77/bin/cpwd",
      "im.dstype" : "gauge",
      "im.metric-type" : "ts",
      "im.name" : "process-cpu",
      "name" : "4283",
      "process-name" : "/opt/CPshrd-R77/bin/cpwd"
    },
    "value" : "0.0"
  }, {
    "tags" : {
      "command" : "/sbin/agetty 9600",
      "im.dstype" : "gauge",
      "im.metric-type" : "ts",
      "im.name" : "process-memory",
      "name" : "12012",
      "process-name" : "/sbin/agetty"
    },
    "value" : "0.0"
  }, {
    "tags" : {
      "command" : "/usr/bin/mpstat -P ALL 1",
      "im.dstype" : "gauge",
      "im.metric-type" : "ts",
      "im.name" : "process-memory",
      "name" : "7798",
      "process-name" : "/usr/bin/mpstat"
    },
    "value" : "0.0"
  }, {
    "tags" : {
      "command" : "/usr/bin/tclsh",
      "im.dstype" : "gauge",
      "im.metric-type" : "ts",
      "im.name" : "process-memory",
      "name" : "5158",
      "process-name" : "/usr/bin/tclsh"
    },
    "value" : "0.1"
  }, {
    "tags" : {
      "command" : "/usr/sbin/acpid",
      "im.dstype" : "gauge",
      "im.metric-type" : "ts",
      "im.name" : "process-cpu",
      "name" : "5184",
      "process-name" : "/usr/sbin/acpid"
    },
    "value" : "0.0"
  }, {
    "tags" : {
      "command" : "/usr/sbin/lsof",
      "im.dstype" : "gauge",
      "im.metric-type" : "ts",
      "im.name" : "process-memory",
      "name" : "2476",
      "process-name" : "/usr/sbin/lsof"
    },
    "value" : "0.3"
  }, {
    "tags" : {
      "command" : "/usr/sbin/lsof",
      "im.dstype" : "gauge",
      "im.metric-type" : "ts",
      "im.name" : "process-memory",
      "name" : "3636",
      "process-name" : "/usr/sbin/lsof"
    },
    "value" : "0.3"
  }, {
    "tags" : {
      "command" : "/usr/sbin/lsof",
      "im.dstype" : "gauge",
      "im.metric-type" : "ts",
      "im.name" : "process-memory",
      "name" : "3640",
      "process-name" : "/usr/sbin/lsof"
    },
    "value" : "0.0"
  }, {
    "tags" : {
      "command" : "/usr/sbin/ntpd -n -g -c",
      "im.dstype" : "gauge",
      "im.metric-type" : "ts",
      "im.name" : "process-cpu",
      "name" : "12147",
      "process-name" : "/usr/sbin/ntpd"
    },
    "value" : "0.0"
  }, {
    "tags" : {
      "command" : "/web/cpshared/web/Apache/2.2.0/bin/httpd2 -k start -f /web/conf/httpd2.conf -D",
      "im.dstype" : "gauge",
      "im.metric-type" : "ts",
      "im.name" : "process-cpu",
      "name" : "25805",
      "process-name" : "/web/cpshared/web/Apache/2.2.0/bin/httpd2"
    },
    "value" : "0.0"
  }, {
    "tags" : {
      "command" : "/web/cpshared/web/Apache/2.2.0/bin/httpd2 -k start -f /web/conf/httpd2.conf -D",
      "im.dstype" : "gauge",
      "im.metric-type" : "ts",
      "im.name" : "process-cpu",
      "name" : "6938",
      "process-name" : "/web/cpshared/web/Apache/2.2.0/bin/httpd2"
    },
    "value" : "0.0"
  }, {
    "tags" : {
      "command" : "[ata/0]",
      "im.dstype" : "gauge",
      "im.metric-type" : "ts",
      "im.name" : "process-cpu",
      "name" : "555",
      "process-name" : "[ata/0]"
    },
    "value" : "0.0"
  }, {
    "tags" : {
      "command" : "[ata/2]",
      "im.dstype" : "gauge",
      "im.metric-type" : "ts",
      "im.name" : "process-cpu",
      "name" : "557",
      "process-name" : "[ata/2]"
    },
    "value" : "0.0"
  }, {
    "tags" : {
      "command" : "[cqueue/0]",
      "im.dstype" : "gauge",
      "im.metric-type" : "ts",
      "im.name" : "process-cpu",
      "name" : "186",
      "process-name" : "[cqueue/0]"
    },
    "value" : "0.0"
  }, {
    "tags" : {
      "command" : "[kacpid]",
      "im.dstype" : "gauge",
      "im.metric-type" : "ts",
      "im.name" : "process-cpu",
      "name" : "24",
      "process-name" : "[kacpid]"
    },
    "value" : "0.0"
  }, {
    "tags" : {
      "command" : "[kblockd/0]",
      "im.dstype" : "gauge",
      "im.metric-type" : "ts",
      "im.name" : "process-cpu",
      "name" : "21",
      "process-name" : "[kblockd/0]"
    },
    "value" : "0.0"
  }, {
    "tags" : {
      "command" : "[kblockd/1]",
      "im.dstype" : "gauge",
      "im.metric-type" : "ts",
      "im.name" : "process-cpu",
      "name" : "22",
      "process-name" : "[kblockd/1]"
    },
    "value" : "0.0"
  }, {
    "tags" : {
      "command" : "[kblockd/2]",
      "im.dstype" : "gauge",
      "im.metric-type" : "ts",
      "im.name" : "process-cpu",
      "name" : "23",
      "process-name" : "[kblockd/2]"
    },
    "value" : "0.0"
  }, {
    "tags" : {
      "command" : "/usr/sbin/ntpd -n -g -c",
      "im.dstype" : "gauge",
      "im.metric-type" : "ts",
      "im.name" : "process-memory",
      "name" : "12147",
      "process-name" : "/usr/sbin/ntpd"
    },
    "value" : "0.2"
  }, {
    "tags" : {
      "command" : "/usr/sbin/snmpd -f -c",
      "im.dstype" : "gauge",
      "im.metric-type" : "ts",
      "im.name" : "process-memory",
      "name" : "20738",
      "process-name" : "/usr/sbin/snmpd"
    },
    "value" : "0.9"
  }, {
    "tags" : {
      "command" : "/usr/sbin/sshd",
      "im.dstype" : "gauge",
      "im.metric-type" : "ts",
      "im.name" : "process-memory",
      "name" : "5237",
      "process-name" : "/usr/sbin/sshd"
    },
    "value" : "0.0"
  }, {
    "tags" : {
      "command" : "/web/cpshared/web/Apache/2.2.0/bin/httpd2 -k start -f /web/conf/httpd2.conf -D",
      "im.dstype" : "gauge",
      "im.metric-type" : "ts",
      "im.name" : "process-memory",
      "name" : "11509",
      "process-name" : "/web/cpshared/web/Apache/2.2.0/bin/httpd2"
    },
    "value" : "0.3"
  }, {
    "tags" : {
      "command" : "/web/cpshared/web/Apache/2.2.0/bin/httpd2 -k start -f /web/conf/httpd2.conf -D",
      "im.dstype" : "gauge",
      "im.metric-type" : "ts",
      "im.name" : "process-memory",
      "name" : "24390",
      "process-name" : "/web/cpshared/web/Apache/2.2.0/bin/httpd2"
    },
    "value" : "0.3"
  }, {
    "tags" : {
      "command" : "/web/cpshared/web/Apache/2.2.0/bin/httpd2 -k start -f /web/conf/httpd2.conf -D",
      "im.dstype" : "gauge",
      "im.metric-type" : "ts",
      "im.name" : "process-memory",
      "name" : "25805",
      "process-name" : "/web/cpshared/web/Apache/2.2.0/bin/httpd2"
    },
    "value" : "0.3"
  }, {
    "tags" : {
      "command" : "/web/cpshared/web/Apache/2.2.0/bin/httpd2 -k start -f /web/conf/httpd2.conf -D",
      "im.dstype" : "gauge",
      "im.metric-type" : "ts",
      "im.name" : "process-memory",
      "name" : "5086",
      "process-name" : "/web/cpshared/web/Apache/2.2.0/bin/httpd2"
    },
    "value" : "0.4"
  }, {
    "tags" : {
      "command" : "/web/cpshared/web/Apache/2.2.0/bin/httpd2 -k start -f /web/conf/httpd2.conf -D",
      "im.dstype" : "gauge",
      "im.metric-type" : "ts",
      "im.name" : "process-memory",
      "name" : "6938",
      "process-name" : "/web/cpshared/web/Apache/2.2.0/bin/httpd2"
    },
    "value" : "0.3"
  }, {
    "tags" : {
      "command" : "[aio/1]",
      "im.dstype" : "gauge",
      "im.metric-type" : "ts",
      "im.name" : "process-memory",
      "name" : "273",
      "process-name" : "[aio/1]"
    },
    "value" : "0.0"
  }, {
    "tags" : {
      "command" : "[aio/2]",
      "im.dstype" : "gauge",
      "im.metric-type" : "ts",
      "im.name" : "process-memory",
      "name" : "274",
      "process-name" : "[aio/2]"
    },
    "value" : "0.0"
  }, {
    "tags" : {
      "command" : "[ata/0]",
      "im.dstype" : "gauge",
      "im.metric-type" : "ts",
      "im.name" : "process-memory",
      "name" : "555",
      "process-name" : "[ata/0]"
    },
    "value" : "0.0"
  }, {
    "tags" : {
      "command" : "[ata/1]",
      "im.dstype" : "gauge",
      "im.metric-type" : "ts",
      "im.name" : "process-memory",
      "name" : "556",
      "process-name" : "[ata/1]"
    },
    "value" : "0.0"
  }, {
    "tags" : {
      "command" : "[ata/2]",
      "im.dstype" : "gauge",
      "im.metric-type" : "ts",
      "im.name" : "process-memory",
      "name" : "557",
      "process-name" : "[ata/2]"
    },
    "value" : "0.0"
  }, {
    "tags" : {
      "command" : "[ata_aux]",
      "im.dstype" : "gauge",
      "im.metric-type" : "ts",
      "im.name" : "process-memory",
      "name" : "558",
      "process-name" : "[ata_aux]"
    },
    "value" : "0.0"
  }, {
    "tags" : {
      "command" : "[cqueue/0]",
      "im.dstype" : "gauge",
      "im.metric-type" : "ts",
      "im.name" : "process-memory",
      "name" : "186",
      "process-name" : "[cqueue/0]"
    },
    "value" : "0.0"
  }, {
    "tags" : {
      "command" : "[cqueue/1]",
      "im.dstype" : "gauge",
      "im.metric-type" : "ts",
      "im.name" : "process-memory",
      "name" : "187",
      "process-name" : "[cqueue/1]"
    },
    "value" : "0.0"
  }, {
    "tags" : {
      "command" : "[cqueue/2]",
      "im.dstype" : "gauge",
      "im.metric-type" : "ts",
      "im.name" : "process-memory",
      "name" : "188",
      "process-name" : "[cqueue/2]"
    },
    "value" : "0.0"
  }, {
    "tags" : {
      "command" : "[events/0]",
      "im.dstype" : "gauge",
      "im.metric-type" : "ts",
      "im.name" : "process-memory",
      "name" : "11",
      "process-name" : "[events/0]"
    },
    "value" : "0.0"
  }, {
    "tags" : {
      "command" : "[events/1]",
      "im.dstype" : "gauge",
      "im.metric-type" : "ts",
      "im.name" : "process-cpu",
      "name" : "12",
      "process-name" : "[events/1]"
    },
    "value" : "0.0"
  }, {
    "tags" : {
      "command" : "[events/1]",
      "im.dstype" : "gauge",
      "im.metric-type" : "ts",
      "im.name" : "process-memory",
      "name" : "12",
      "process-name" : "[events/1]"
    },
    "value" : "0.0"
  }, {
    "tags" : {
      "command" : "[events/2]",
      "im.dstype" : "gauge",
      "im.metric-type" : "ts",
      "im.name" : "process-memory",
      "name" : "13",
      "process-name" : "[events/2]"
    },
    "value" : "0.0"
  }, {
    "tags" : {
      "command" : "[kacpid]",
      "im.dstype" : "gauge",
      "im.metric-type" : "ts",
      "im.name" : "process-memory",
      "name" : "24",
      "process-name" : "[kacpid]"
    },
    "value" : "0.0"
  }, {
    "tags" : {
      "command" : "[kauditd]",
      "im.dstype" : "gauge",
      "im.metric-type" : "ts",
      "im.name" : "process-memory",
      "name" : "623",
      "process-name" : "[kauditd]"
    },
    "value" : "0.0"
  }, {
    "tags" : {
      "command" : "[kblockd/0]",
      "im.dstype" : "gauge",
      "im.metric-type" : "ts",
      "im.name" : "process-memory",
      "name" : "21",
      "process-name" : "[kblockd/0]"
    },
    "value" : "0.0"
  }, {
    "tags" : {
      "command" : "[kblockd/1]",
      "im.dstype" : "gauge",
      "im.metric-type" : "ts",
      "im.name" : "process-memory",
      "name" : "22",
      "process-name" : "[kblockd/1]"
    },
    "value" : "0.0"
  }, {
    "tags" : {
      "command" : "[kblockd/2]",
      "im.dstype" : "gauge",
      "im.metric-type" : "ts",
      "im.name" : "process-memory",
      "name" : "23",
      "process-name" : "[kblockd/2]"
    },
    "value" : "0.0"
  }, {
    "tags" : {
      "command" : "[khelper]",
      "im.dstype" : "gauge",
      "im.metric-type" : "ts",
      "im.name" : "process-cpu",
      "name" : "14",
      "process-name" : "[khelper]"
    },
    "value" : "0.0"
  }, {
    "tags" : {
      "command" : "[khelper]",
      "im.dstype" : "gauge",
      "im.metric-type" : "ts",
      "im.name" : "process-memory",
      "name" : "14",
      "process-name" : "[khelper]"
    },
    "value" : "0.0"
  }, {
    "tags" : {
      "command" : "[khubd]",
      "im.dstype" : "gauge",
      "im.metric-type" : "ts",
      "im.name" : "process-memory",
      "name" : "191",
      "process-name" : "[khubd]"
    },
    "value" : "0.0"
  }, {
    "tags" : {
      "command" : "[kissd]",
      "im.dstype" : "gauge",
      "im.metric-type" : "ts",
      "im.name" : "process-cpu",
      "name" : "4253",
      "process-name" : "[kissd]"
    },
    "value" : "0.0"
  }, {
    "tags" : {
      "command" : "[kissd]",
      "im.dstype" : "gauge",
      "im.metric-type" : "ts",
      "im.name" : "process-memory",
      "name" : "4253",
      "process-name" : "[kissd]"
    },
    "value" : "0.0"
  }, {
    "tags" : {
      "command" : "[kjournald]",
      "im.dstype" : "gauge",
      "im.metric-type" : "ts",
      "im.name" : "process-cpu",
      "name" : "1855",
      "process-name" : "[kjournald]"
    },
    "value" : "1.9"
  }, {
    "tags" : {
      "command" : "[kjournald]",
      "im.dstype" : "gauge",
      "im.metric-type" : "ts",
      "im.name" : "process-cpu",
      "name" : "587",
      "process-name" : "[kjournald]"
    },
    "value" : "0.0"
  }, {
    "tags" : {
      "command" : "[kmem_kthread]",
      "im.dstype" : "gauge",
      "im.metric-type" : "ts",
      "im.name" : "process-cpu",
      "name" : "16",
      "process-name" : "[kmem_kthread]"
    },
    "value" : "0.0"
  }, {
    "tags" : {
      "command" : "[kjournald]",
      "im.dstype" : "gauge",
      "im.metric-type" : "ts",
      "im.name" : "process-memory",
      "name" : "1853",
      "process-name" : "[kjournald]"
    },
    "value" : "0.0"
  }, {
    "tags" : {
      "command" : "[kjournald]",
      "im.dstype" : "gauge",
      "im.metric-type" : "ts",
      "im.name" : "process-memory",
      "name" : "1855",
      "process-name" : "[kjournald]"
    },
    "value" : "0.0"
  }, {
    "tags" : {
      "command" : "[kjournald]",
      "im.dstype" : "gauge",
      "im.metric-type" : "ts",
      "im.name" : "process-memory",
      "name" : "587",
      "process-name" : "[kjournald]"
    },
    "value" : "0.0"
  }, {
    "tags" : {
      "command" : "[kmem_kthread]",
      "im.dstype" : "gauge",
      "im.metric-type" : "ts",
      "im.name" : "process-memory",
      "name" : "16",
      "process-name" : "[kmem_kthread]"
    },
    "value" : "0.0"
  }, {
    "tags" : {
      "command" : "[kmpathd/0]",
      "im.dstype" : "gauge",
      "im.metric-type" : "ts",
      "im.name" : "process-cpu",
      "name" : "1825",
      "process-name" : "[kmpathd/0]"
    },
    "value" : "0.0"
  }, {
    "tags" : {
      "command" : "[kmpathd/0]",
      "im.dstype" : "gauge",
      "im.metric-type" : "ts",
      "im.name" : "process-memory",
      "name" : "1825",
      "process-name" : "[kmpathd/0]"
    },
    "value" : "0.0"
  }, {
    "tags" : {
      "command" : "[kmpathd/1]",
      "im.dstype" : "gauge",
      "im.metric-type" : "ts",
      "im.name" : "process-cpu",
      "name" : "1826",
      "process-name" : "[kmpathd/1]"
    },
    "value" : "0.0"
  }, {
    "tags" : {
      "command" : "[kpsmoused]",
      "im.dstype" : "gauge",
      "im.metric-type" : "ts",
      "im.name" : "process-cpu",
      "name" : "487",
      "process-name" : "[kpsmoused]"
    },
    "value" : "0.0"
  }, {
    "tags" : {
      "command" : "[kseriod]",
      "im.dstype" : "gauge",
      "im.metric-type" : "ts",
      "im.name" : "process-cpu",
      "name" : "193",
      "process-name" : "[kseriod]"
    },
    "value" : "0.0"
  }, {
    "tags" : {
      "command" : "[kmpathd/1]",
      "im.dstype" : "gauge",
      "im.metric-type" : "ts",
      "im.name" : "process-memory",
      "name" : "1826",
      "process-name" : "[kmpathd/1]"
    },
    "value" : "0.0"
  }, {
    "tags" : {
      "command" : "[kmpathd/2]",
      "im.dstype" : "gauge",
      "im.metric-type" : "ts",
      "im.name" : "process-cpu",
      "name" : "1827",
      "process-name" : "[kmpathd/2]"
    },
    "value" : "0.0"
  }, {
    "tags" : {
      "command" : "[kmpathd/2]",
      "im.dstype" : "gauge",
      "im.metric-type" : "ts",
      "im.name" : "process-memory",
      "name" : "1827",
      "process-name" : "[kmpathd/2]"
    },
    "value" : "0.0"
  }, {
    "tags" : {
      "command" : "[kpsmoused]",
      "im.dstype" : "gauge",
      "im.metric-type" : "ts",
      "im.name" : "process-memory",
      "name" : "487",
      "process-name" : "[kpsmoused]"
    },
    "value" : "0.0"
  }, {
    "tags" : {
      "command" : "[ksnapd]",
      "im.dstype" : "gauge",
      "im.metric-type" : "ts",
      "im.name" : "process-cpu",
      "name" : "579",
      "process-name" : "[ksnapd]"
    },
    "value" : "0.0"
  }, {
    "tags" : {
      "command" : "[kseriod]",
      "im.dstype" : "gauge",
      "im.metric-type" : "ts",
      "im.name" : "process-memory",
      "name" : "193",
      "process-name" : "[kseriod]"
    },
    "value" : "0.0"
  }, {
    "tags" : {
      "command" : "[ksnapd]",
      "im.dstype" : "gauge",
      "im.metric-type" : "ts",
      "im.name" : "process-memory",
      "name" : "579",
      "process-name" : "[ksnapd]"
    },
    "value" : "0.0"
  }, {
    "tags" : {
      "command" : "[ksoftirqd/0]",
      "im.dstype" : "gauge",
      "im.metric-type" : "ts",
      "im.name" : "process-cpu",
      "name" : "3",
      "process-name" : "[ksoftirqd/0]"
    },
    "value" : "0.0"
  }, {
    "tags" : {
      "command" : "[ksoftirqd/0]",
      "im.dstype" : "gauge",
      "im.metric-type" : "ts",
      "im.name" : "process-memory",
      "name" : "3",
      "process-name" : "[ksoftirqd/0]"
    },
    "value" : "0.0"
  }, {
    "tags" : {
      "command" : "[ksoftirqd/1]",
      "im.dstype" : "gauge",
      "im.metric-type" : "ts",
      "im.name" : "process-cpu",
      "name" : "6",
      "process-name" : "[ksoftirqd/1]"
    },
    "value" : "0.0"
  }, {
    "tags" : {
      "command" : "[ksoftirqd/1]",
      "im.dstype" : "gauge",
      "im.metric-type" : "ts",
      "im.name" : "process-memory",
      "name" : "6",
      "process-name" : "[ksoftirqd/1]"
    },
    "value" : "0.0"
  }, {
    "tags" : {
      "command" : "[ksoftirqd/2]",
      "im.dstype" : "gauge",
      "im.metric-type" : "ts",
      "im.name" : "process-cpu",
      "name" : "9",
      "process-name" : "[ksoftirqd/2]"
    },
    "value" : "0.0"
  }, {
    "tags" : {
      "command" : "[kswapd0]",
      "im.dstype" : "gauge",
      "im.metric-type" : "ts",
      "im.name" : "process-cpu",
      "name" : "271",
      "process-name" : "[kswapd0]"
    },
    "value" : "0.0"
  }, {
    "tags" : {
      "command" : "[migration/0]",
      "im.dstype" : "gauge",
      "im.metric-type" : "ts",
      "im.name" : "process-cpu",
      "name" : "2",
      "process-name" : "[migration/0]"
    },
    "value" : "0.0"
  }, {
    "tags" : {
      "command" : "[migration/1]",
      "im.dstype" : "gauge",
      "im.metric-type" : "ts",
      "im.name" : "process-cpu",
      "name" : "5",
      "process-name" : "[migration/1]"
    },
    "value" : "0.0"
  }, {
    "tags" : {
      "command" : "[mpt_poll_0]",
      "im.dstype" : "gauge",
      "im.metric-type" : "ts",
      "im.name" : "process-cpu",
      "name" : "544",
      "process-name" : "[mpt_poll_0]"
    },
    "value" : "0.0"
  }, {
    "tags" : {
      "command" : "[kswapd0]",
      "im.dstype" : "gauge",
      "im.metric-type" : "ts",
      "im.name" : "process-memory",
      "name" : "271",
      "process-name" : "[kswapd0]"
    },
    "value" : "0.0"
  }, {
    "tags" : {
      "command" : "[kthread]",
      "im.dstype" : "gauge",
      "im.metric-type" : "ts",
      "im.name" : "process-cpu",
      "name" : "15",
      "process-name" : "[kthread]"
    },
    "value" : "0.0"
  }, {
    "tags" : {
      "command" : "[kthread]",
      "im.dstype" : "gauge",
      "im.metric-type" : "ts",
      "im.name" : "process-memory",
      "name" : "15",
      "process-name" : "[kthread]"
    },
    "value" : "0.0"
  }, {
    "tags" : {
      "command" : "[migration/1]",
      "im.dstype" : "gauge",
      "im.metric-type" : "ts",
      "im.name" : "process-memory",
      "name" : "5",
      "process-name" : "[migration/1]"
    },
    "value" : "0.0"
  }, {
    "tags" : {
      "command" : "[migration/2]",
      "im.dstype" : "gauge",
      "im.metric-type" : "ts",
      "im.name" : "process-cpu",
      "name" : "8",
      "process-name" : "[migration/2]"
    },
    "value" : "0.0"
  }, {
    "tags" : {
      "command" : "[migration/2]",
      "im.dstype" : "gauge",
      "im.metric-type" : "ts",
      "im.name" : "process-memory",
      "name" : "8",
      "process-name" : "[migration/2]"
    },
    "value" : "0.0"
  }, {
    "tags" : {
      "command" : "[mpt/0]",
      "im.dstype" : "gauge",
      "im.metric-type" : "ts",
      "im.name" : "process-cpu",
      "name" : "545",
      "process-name" : "[mpt/0]"
    },
    "value" : "0.0"
  }, {
    "tags" : {
      "command" : "[pdflush]",
      "im.dstype" : "gauge",
      "im.metric-type" : "ts",
      "im.name" : "process-cpu",
      "name" : "10519",
      "process-name" : "[pdflush]"
    },
    "value" : "0.0"
  }, {
    "tags" : {
      "command" : "[pdflush]",
      "im.dstype" : "gauge",
      "im.metric-type" : "ts",
      "im.name" : "process-cpu",
      "name" : "270",
      "process-name" : "[pdflush]"
    },
    "value" : "0.0"
  }, {
    "tags" : {
      "command" : "[pdflush]",
      "im.dstype" : "gauge",
      "im.metric-type" : "ts",
      "im.name" : "process-memory",
      "name" : "10519",
      "process-name" : "[pdflush]"
    },
    "value" : "0.0"
  }, {
    "tags" : {
      "command" : "[pdflush]",
      "im.dstype" : "gauge",
      "im.metric-type" : "ts",
      "im.name" : "process-memory",
      "name" : "270",
      "process-name" : "[pdflush]"
    },
    "value" : "0.0"
  }, {
    "tags" : {
      "command" : "[scsi_eh_0]",
      "im.dstype" : "gauge",
      "im.metric-type" : "ts",
      "im.name" : "process-cpu",
      "name" : "546",
      "process-name" : "[scsi_eh_0]"
    },
    "value" : "0.0"
  }, {
    "tags" : {
      "command" : "[scsi_eh_0]",
      "im.dstype" : "gauge",
      "im.metric-type" : "ts",
      "im.name" : "process-memory",
      "name" : "546",
      "process-name" : "[scsi_eh_0]"
    },
    "value" : "0.0"
  }, {
    "tags" : {
      "command" : "[vmmemctl]",
      "im.dstype" : "gauge",
      "im.metric-type" : "ts",
      "im.name" : "process-cpu",
      "name" : "5345",
      "process-name" : "[vmmemctl]"
    },
    "value" : "0.0"
  }, {
    "tags" : {
      "command" : "[watchdog/0]",
      "im.dstype" : "gauge",
      "im.metric-type" : "ts",
      "im.name" : "process-cpu",
      "name" : "4",
      "process-name" : "[watchdog/0]"
    },
    "value" : "0.0"
  }, {
    "tags" : {
      "command" : "[watchdog/1]",
      "im.dstype" : "gauge",
      "im.metric-type" : "ts",
      "im.name" : "process-cpu",
      "name" : "7",
      "process-name" : "[watchdog/1]"
    },
    "value" : "0.0"
  }, {
    "tags" : {
      "command" : "ci_http_server -j -f",
      "im.dstype" : "gauge",
      "im.metric-type" : "ts",
      "im.name" : "process-cpu",
      "name" : "10785",
      "process-name" : "ci_http_server"
    },
    "value" : "0.0"
  }, {
    "tags" : {
      "command" : "ci_http_server -j -f",
      "im.dstype" : "gauge",
      "im.metric-type" : "ts",
      "im.name" : "process-cpu",
      "name" : "6468",
      "process-name" : "ci_http_server"
    },
    "value" : "0.0"
  }, {
    "tags" : {
      "command" : "cpd",
      "im.dstype" : "gauge",
      "im.metric-type" : "ts",
      "im.name" : "process-cpu",
      "name" : "16158",
      "process-name" : "cpd"
    },
    "value" : "0.0"
  }, {
    "tags" : {
      "command" : "cphamcset",
      "im.dstype" : "gauge",
      "im.metric-type" : "ts",
      "im.name" : "process-cpu",
      "name" : "14210",
      "process-name" : "cphamcset"
    },
    "value" : "0.0"
  }, {
    "tags" : {
      "command" : "cpsicdemux",
      "im.dstype" : "gauge",
      "im.metric-type" : "ts",
      "im.name" : "process-cpu",
      "name" : "5586",
      "process-name" : "cpsicdemux"
    },
    "value" : "0.0"
  }, {
    "tags" : {
      "command" : "cpview_historyd",
      "im.dstype" : "gauge",
      "im.metric-type" : "ts",
      "im.name" : "process-cpu",
      "name" : "5613",
      "process-name" : "cpview_historyd"
    },
    "value" : "0.0"
  }, {
    "tags" : {
      "command" : "cpviewd",
      "im.dstype" : "gauge",
      "im.metric-type" : "ts",
      "im.name" : "process-cpu",
      "name" : "10652",
      "process-name" : "cpviewd"
    },
    "value" : "0.0"
  }, {
    "tags" : {
      "command" : "cpviewd",
      "im.dstype" : "gauge",
      "im.metric-type" : "ts",
      "im.name" : "process-cpu",
      "name" : "10870",
      "process-name" : "cpviewd"
    },
    "value" : "0.0"
  }, {
    "tags" : {
      "command" : "[ksoftirqd/2]",
      "im.dstype" : "gauge",
      "im.metric-type" : "ts",
      "im.name" : "process-memory",
      "name" : "9",
      "process-name" : "[ksoftirqd/2]"
    },
    "value" : "0.0"
  }, {
    "tags" : {
      "command" : "[migration/0]",
      "im.dstype" : "gauge",
      "im.metric-type" : "ts",
      "im.name" : "process-memory",
      "name" : "2",
      "process-name" : "[migration/0]"
    },
    "value" : "0.0"
  }, {
    "tags" : {
      "command" : "[mpt/0]",
      "im.dstype" : "gauge",
      "im.metric-type" : "ts",
      "im.name" : "process-memory",
      "name" : "545",
      "process-name" : "[mpt/0]"
    },
    "value" : "0.0"
  }, {
    "tags" : {
      "command" : "[mpt_poll_0]",
      "im.dstype" : "gauge",
      "im.metric-type" : "ts",
      "im.name" : "process-memory",
      "name" : "544",
      "process-name" : "[mpt_poll_0]"
    },
    "value" : "0.0"
  }, {
    "tags" : {
      "command" : "[vmmemctl]",
      "im.dstype" : "gauge",
      "im.metric-type" : "ts",
      "im.name" : "process-memory",
      "name" : "5345",
      "process-name" : "[vmmemctl]"
    },
    "value" : "0.0"
  }, {
    "tags" : {
      "command" : "[watchdog/0]",
      "im.dstype" : "gauge",
      "im.metric-type" : "ts",
      "im.name" : "process-memory",
      "name" : "4",
      "process-name" : "[watchdog/0]"
    },
    "value" : "0.0"
  }, {
    "tags" : {
      "command" : "[watchdog/1]",
      "im.dstype" : "gauge",
      "im.metric-type" : "ts",
      "im.name" : "process-memory",
      "name" : "7",
      "process-name" : "[watchdog/1]"
    },
    "value" : "0.0"
  }, {
    "tags" : {
      "command" : "[watchdog/2]",
      "im.dstype" : "gauge",
      "im.metric-type" : "ts",
      "im.name" : "process-cpu",
      "name" : "10",
      "process-name" : "[watchdog/2]"
    },
    "value" : "0.0"
  }, {
    "tags" : {
      "command" : "[watchdog/2]",
      "im.dstype" : "gauge",
      "im.metric-type" : "ts",
      "im.name" : "process-memory",
      "name" : "10",
      "process-name" : "[watchdog/2]"
    },
    "value" : "0.0"
  }, {
    "tags" : {
      "command" : "auditd",
      "im.dstype" : "gauge",
      "im.metric-type" : "ts",
      "im.name" : "process-cpu",
      "name" : "4444",
      "process-name" : "auditd"
    },
    "value" : "0.0"
  }, {
    "tags" : {
      "command" : "awk {if (NR>1)print",
      "im.dstype" : "gauge",
      "im.metric-type" : "ts",
      "im.name" : "process-cpu",
      "name" : "2477",
      "process-name" : "awk"
    },
    "value" : "0.0"
  }, {
    "tags" : {
      "command" : "awk {if (NR>1)print",
      "im.dstype" : "gauge",
      "im.metric-type" : "ts",
      "im.name" : "process-cpu",
      "name" : "3637",
      "process-name" : "awk"
    },
    "value" : "0.0"
  }, {
    "tags" : {
      "command" : "awk {if (NR>1)print",
      "im.dstype" : "gauge",
      "im.metric-type" : "ts",
      "im.name" : "process-memory",
      "name" : "2477",
      "process-name" : "awk"
    },
    "value" : "0.0"
  }, {
    "tags" : {
      "command" : "ci_http_server -j -f",
      "im.dstype" : "gauge",
      "im.metric-type" : "ts",
      "im.name" : "process-cpu",
      "name" : "10878",
      "process-name" : "ci_http_server"
    },
    "value" : "0.0"
  }, {
    "tags" : {
      "command" : "cpd",
      "im.dstype" : "gauge",
      "im.metric-type" : "ts",
      "im.name" : "process-cpu",
      "name" : "19042",
      "process-name" : "cpd"
    },
    "value" : "0.0"
  }, {
    "tags" : {
      "command" : "cpd",
      "im.dstype" : "gauge",
      "im.metric-type" : "ts",
      "im.name" : "process-cpu",
      "name" : "19868",
      "process-name" : "cpd"
    },
    "value" : "0.0"
  }, {
    "tags" : {
      "command" : "cphamcset",
      "im.dstype" : "gauge",
      "im.metric-type" : "ts",
      "im.name" : "process-cpu",
      "name" : "13488",
      "process-name" : "cphamcset"
    },
    "value" : "0.0"
  }, {
    "tags" : {
      "command" : "auditd",
      "im.dstype" : "gauge",
      "im.metric-type" : "ts",
      "im.name" : "process-memory",
      "name" : "4444",
      "process-name" : "auditd"
    },
    "value" : "0.0"
  }, {
    "tags" : {
      "command" : "awk {if (NR>1)print",
      "im.dstype" : "gauge",
      "im.metric-type" : "ts",
      "im.name" : "process-memory",
      "name" : "3637",
      "process-name" : "awk"
    },
    "value" : "0.0"
  }, {
    "tags" : {
      "command" : "ci_http_server -j -f",
      "im.dstype" : "gauge",
      "im.metric-type" : "ts",
      "im.name" : "process-memory",
      "name" : "10785",
      "process-name" : "ci_http_server"
    },
    "value" : "0.5"
  }, {
    "tags" : {
      "command" : "ci_http_server -j -f",
      "im.dstype" : "gauge",
      "im.metric-type" : "ts",
      "im.name" : "process-memory",
      "name" : "10878",
      "process-name" : "ci_http_server"
    },
    "value" : "0.5"
  }, {
    "tags" : {
      "command" : "ci_http_server -j -f",
      "im.dstype" : "gauge",
      "im.metric-type" : "ts",
      "im.name" : "process-memory",
      "name" : "6468",
      "process-name" : "ci_http_server"
    },
    "value" : "0.6"
  }, {
    "tags" : {
      "command" : "cpd",
      "im.dstype" : "gauge",
      "im.metric-type" : "ts",
      "im.name" : "process-cpu",
      "name" : "10606",
      "process-name" : "cpd"
    },
    "value" : "0.0"
  }, {
    "tags" : {
      "command" : "cpd",
      "im.dstype" : "gauge",
      "im.metric-type" : "ts",
      "im.name" : "process-memory",
      "name" : "10606",
      "process-name" : "cpd"
    },
    "value" : "3.3"
  }, {
    "tags" : {
      "command" : "cpd",
      "im.dstype" : "gauge",
      "im.metric-type" : "ts",
      "im.name" : "process-memory",
      "name" : "19042",
      "process-name" : "cpd"
    },
    "value" : "3.6"
  }, {
    "tags" : {
      "command" : "cphamcset",
      "im.dstype" : "gauge",
      "im.metric-type" : "ts",
      "im.name" : "process-cpu",
      "name" : "7023",
      "process-name" : "cphamcset"
    },
    "value" : "0.0"
  }, {
    "tags" : {
      "command" : "cphamcset",
      "im.dstype" : "gauge",
      "im.metric-type" : "ts",
      "im.name" : "process-memory",
      "name" : "13488",
      "process-name" : "cphamcset"
    },
    "value" : "0.7"
  }, {
    "tags" : {
      "command" : "cphamcset",
      "im.dstype" : "gauge",
      "im.metric-type" : "ts",
      "im.name" : "process-memory",
      "name" : "7023",
      "process-name" : "cphamcset"
    },
    "value" : "0.8"
  }, {
    "tags" : {
      "command" : "cpview_historyd",
      "im.dstype" : "gauge",
      "im.metric-type" : "ts",
      "im.name" : "process-memory",
      "name" : "5613",
      "process-name" : "cpview_historyd"
    },
    "value" : "1.1"
  }, {
    "tags" : {
      "command" : "cpviewd",
      "im.dstype" : "gauge",
      "im.metric-type" : "ts",
      "im.name" : "process-cpu",
      "name" : "10767",
      "process-name" : "cpviewd"
    },
    "value" : "0.0"
  }, {
    "tags" : {
      "command" : "cpviewd",
      "im.dstype" : "gauge",
      "im.metric-type" : "ts",
      "im.name" : "process-cpu",
      "name" : "6461",
      "process-name" : "cpviewd"
    },
    "value" : "0.0"
  }, {
    "tags" : {
      "command" : "cpviewd",
      "im.dstype" : "gauge",
      "im.metric-type" : "ts",
      "im.name" : "process-memory",
      "name" : "10652",
      "process-name" : "cpviewd"
    },
    "value" : "0.7"
  }, {
    "tags" : {
      "command" : "cpviewd",
      "im.dstype" : "gauge",
      "im.metric-type" : "ts",
      "im.name" : "process-memory",
      "name" : "10767",
      "process-name" : "cpviewd"
    },
    "value" : "0.7"
  }, {
    "tags" : {
      "command" : "cpviewd",
      "im.dstype" : "gauge",
      "im.metric-type" : "ts",
      "im.name" : "process-memory",
      "name" : "10870",
      "process-name" : "cpviewd"
    },
    "value" : "0.7"
  }, {
    "tags" : {
      "command" : "crond",
      "im.dstype" : "gauge",
      "im.metric-type" : "ts",
      "im.name" : "process-cpu",
      "name" : "5428",
      "process-name" : "crond"
    },
    "value" : "0.0"
  }, {
    "tags" : {
      "command" : "find /opt/CPinfo-10/bin /sbin /usr/sbin /bin /usr/bin /opt/CPshrd-R77/bin /opt/CPshrd-R77/util /opt/CPshrd-R77/web/Apache/2.2.0/bin",
      "im.dstype" : "gauge",
      "im.metric-type" : "ts",
      "im.name" : "process-cpu",
      "name" : "7847",
      "process-name" : "find"
    },
    "value" : "0.0"
  }, {
    "tags" : {
      "command" : "fwd",
      "im.dstype" : "gauge",
      "im.metric-type" : "ts",
      "im.name" : "process-cpu",
      "name" : "10702",
      "process-name" : "fwd"
    },
    "value" : "0.0"
  }, {
    "tags" : {
      "command" : "fwd",
      "im.dstype" : "gauge",
      "im.metric-type" : "ts",
      "im.name" : "process-cpu",
      "name" : "6456",
      "process-name" : "fwd"
    },
    "value" : "0.0"
  }, {
    "tags" : {
      "command" : "fwd",
      "im.dstype" : "gauge",
      "im.metric-type" : "ts",
      "im.name" : "process-memory",
      "name" : "10648",
      "process-name" : "fwd"
    },
    "value" : "2.6"
  }, {
    "tags" : {
      "command" : "fwk",
      "im.dstype" : "gauge",
      "im.metric-type" : "ts",
      "im.name" : "process-cpu",
      "name" : "10314",
      "process-name" : "fwk"
    },
    "value" : "1.7"
  }, {
    "tags" : {
      "command" : "fwk",
      "im.dstype" : "gauge",
      "im.metric-type" : "ts",
      "im.name" : "process-cpu",
      "name" : "10423",
      "process-name" : "fwk"
    },
    "value" : "2.1"
  }, {
    "tags" : {
      "command" : "fwk",
      "im.dstype" : "gauge",
      "im.metric-type" : "ts",
      "im.name" : "process-cpu",
      "name" : "6414",
      "process-name" : "fwk"
    },
    "value" : "54.5"
  }, {
    "tags" : {
      "command" : "fwk_forker",
      "im.dstype" : "gauge",
      "im.metric-type" : "ts",
      "im.name" : "process-cpu",
      "name" : "4303",
      "process-name" : "fwk_forker"
    },
    "value" : "0.0"
  }, {
    "tags" : {
      "command" : "fwk_wd -i 1 -i6",
      "im.dstype" : "gauge",
      "im.metric-type" : "ts",
      "im.name" : "process-cpu",
      "name" : "10313",
      "process-name" : "fwk_wd"
    },
    "value" : "0.0"
  }, {
    "tags" : {
      "command" : "fwk_wd -i 1 -i6",
      "im.dstype" : "gauge",
      "im.metric-type" : "ts",
      "im.name" : "process-cpu",
      "name" : "10352",
      "process-name" : "fwk_wd"
    },
    "value" : "0.0"
  }, {
    "tags" : {
      "command" : "fwk_wd -i 1 -i6",
      "im.dstype" : "gauge",
      "im.metric-type" : "ts",
      "im.name" : "process-cpu",
      "name" : "10410",
      "process-name" : "fwk_wd"
    },
    "value" : "0.0"
  }, {
    "tags" : {
      "command" : "fwk_wd -i 1 -i6",
      "im.dstype" : "gauge",
      "im.metric-type" : "ts",
      "im.name" : "process-cpu",
      "name" : "6404",
      "process-name" : "fwk_wd"
    },
    "value" : "0.0"
  }, {
    "tags" : {
      "command" : "grep",
      "im.dstype" : "gauge",
      "im.metric-type" : "ts",
      "im.name" : "process-cpu",
      "name" : "7799",
      "process-name" : "grep"
    },
    "value" : "0.0"
  }, {
    "tags" : {
      "command" : "grep",
      "im.dstype" : "gauge",
      "im.metric-type" : "ts",
      "im.name" : "process-cpu",
      "name" : "7812",
      "process-name" : "grep"
    },
    "value" : "0.0"
  }, {
    "tags" : {
      "command" : "in.geod",
      "im.dstype" : "gauge",
      "im.metric-type" : "ts",
      "im.name" : "process-cpu",
      "name" : "14424",
      "process-name" : "in.geod"
    },
    "value" : "0.0"
  }, {
    "tags" : {
      "command" : "init",
      "im.dstype" : "gauge",
      "im.metric-type" : "ts",
      "im.name" : "process-cpu",
      "name" : "1",
      "process-name" : "init"
    },
    "value" : "0.0"
  }, {
    "tags" : {
      "command" : "klogd -x -c",
      "im.dstype" : "gauge",
      "im.metric-type" : "ts",
      "im.name" : "process-cpu",
      "name" : "4485",
      "process-name" : "klogd"
    },
    "value" : "0.0"
  }, {
    "tags" : {
      "command" : "mpdaemon /opt/CPshrd-R77/CTX/CTX00002/log/mpdaemon.elg",
      "im.dstype" : "gauge",
      "im.metric-type" : "ts",
      "im.name" : "process-cpu",
      "name" : "10876",
      "process-name" : "mpdaemon"
    },
    "value" : "0.0"
  }, {
    "tags" : {
      "command" : "mpdaemon /opt/CPshrd-R77/CTX/CTX00003/log/mpdaemon.elg",
      "im.dstype" : "gauge",
      "im.metric-type" : "ts",
      "im.name" : "process-cpu",
      "name" : "10779",
      "process-name" : "mpdaemon"
    },
    "value" : "0.0"
  }, {
    "tags" : {
      "command" : "mpdaemon /opt/CPshrd-R77/log/mpdaemon.elg",
      "im.dstype" : "gauge",
      "im.metric-type" : "ts",
      "im.name" : "process-cpu",
      "name" : "6463",
      "process-name" : "mpdaemon"
    },
    "value" : "0.0"
  }, {
    "tags" : {
      "command" : "nslookup",
      "im.dstype" : "gauge",
      "im.metric-type" : "ts",
      "im.name" : "process-cpu",
      "name" : "7645",
      "process-name" : "nslookup"
    },
    "value" : "0.0"
  }, {
    "tags" : {
      "command" : "postgres: autovacuum launcher",
      "im.dstype" : "gauge",
      "im.metric-type" : "ts",
      "im.name" : "process-cpu",
      "name" : "5691",
      "process-name" : "postgres:"
    },
    "value" : "0.0"
  }, {
    "tags" : {
      "command" : "postgres: stats collector",
      "im.dstype" : "gauge",
      "im.metric-type" : "ts",
      "im.name" : "process-cpu",
      "name" : "5692",
      "process-name" : "postgres:"
    },
    "value" : "0.0"
  }, {
    "tags" : {
      "command" : "postgres: wal writer",
      "im.dstype" : "gauge",
      "im.metric-type" : "ts",
      "im.name" : "process-cpu",
      "name" : "5690",
      "process-name" : "postgres:"
    },
    "value" : "0.0"
  }, {
    "tags" : {
      "command" : "postgres: writer",
      "im.dstype" : "gauge",
      "im.metric-type" : "ts",
      "im.name" : "process-cpu",
      "name" : "5689",
      "process-name" : "postgres:"
    },
    "value" : "0.0"
  }, {
    "tags" : {
      "command" : "sleep",
      "im.dstype" : "gauge",
      "im.metric-type" : "ts",
      "im.name" : "process-cpu",
      "name" : "22606",
      "process-name" : "sleep"
    },
    "value" : "0.0"
  }, {
    "tags" : {
      "command" : "sleep",
      "im.dstype" : "gauge",
      "im.metric-type" : "ts",
      "im.name" : "process-cpu",
      "name" : "7821",
      "process-name" : "sleep"
    },
    "value" : "0.0"
  }, {
    "tags" : {
      "command" : "sort",
      "im.dstype" : "gauge",
      "im.metric-type" : "ts",
      "im.name" : "process-cpu",
      "name" : "2478",
      "process-name" : "sort"
    },
    "value" : "0.0"
  }, {
    "tags" : {
      "command" : "sort",
      "im.dstype" : "gauge",
      "im.metric-type" : "ts",
      "im.name" : "process-cpu",
      "name" : "3638",
      "process-name" : "sort"
    },
    "value" : "0.0"
  }, {
    "tags" : {
      "command" : "sshd:",
      "im.dstype" : "gauge",
      "im.metric-type" : "ts",
      "im.name" : "process-cpu",
      "name" : "21389",
      "process-name" : "sshd:"
    },
    "value" : "0.9"
  }, {
    "tags" : {
      "command" : "sshd:",
      "im.dstype" : "gauge",
      "im.metric-type" : "ts",
      "im.name" : "process-cpu",
      "name" : "22034",
      "process-name" : "sshd:"
    },
    "value" : "0.1"
  }, {
    "tags" : {
      "command" : "sshd:",
      "im.dstype" : "gauge",
      "im.metric-type" : "ts",
      "im.name" : "process-cpu",
      "name" : "27181",
      "process-name" : "sshd:"
    },
    "value" : "0.8"
  }, {
    "tags" : {
      "command" : "sshd:",
      "im.dstype" : "gauge",
      "im.metric-type" : "ts",
      "im.name" : "process-cpu",
      "name" : "27308",
      "process-name" : "sshd:"
    },
    "value" : "0.6"
  }, {
    "tags" : {
      "command" : "sshd:",
      "im.dstype" : "gauge",
      "im.metric-type" : "ts",
      "im.name" : "process-cpu",
      "name" : "30860",
      "process-name" : "sshd:"
    },
    "value" : "0.6"
  }, {
    "tags" : {
      "command" : "sshd:",
      "im.dstype" : "gauge",
      "im.metric-type" : "ts",
      "im.name" : "process-cpu",
      "name" : "3201",
      "process-name" : "sshd:"
    },
    "value" : "0.0"
  }, {
    "tags" : {
      "command" : "sshd:",
      "im.dstype" : "gauge",
      "im.metric-type" : "ts",
      "im.name" : "process-cpu",
      "name" : "6968",
      "process-name" : "sshd:"
    },
    "value" : "0.1"
  }, {
    "tags" : {
      "command" : "syslogd -m 0 -z 515 -P info -f",
      "im.dstype" : "gauge",
      "im.metric-type" : "ts",
      "im.name" : "process-cpu",
      "name" : "4480",
      "process-name" : "syslogd"
    },
    "value" : "0.8"
  }, {
    "tags" : {
      "command" : "uniq",
      "im.dstype" : "gauge",
      "im.metric-type" : "ts",
      "im.name" : "process-cpu",
      "name" : "2479",
      "process-name" : "uniq"
    },
    "value" : "0.0"
  }, {
    "tags" : {
      "command" : "uniq",
      "im.dstype" : "gauge",
      "im.metric-type" : "ts",
      "im.name" : "process-cpu",
      "name" : "3639",
      "process-name" : "uniq"
    },
    "value" : "0.0"
  }, {
    "tags" : {
      "command" : "xinetd -stayalive -pidfile",
      "im.dstype" : "gauge",
      "im.metric-type" : "ts",
      "im.name" : "process-cpu",
      "name" : "5322",
      "process-name" : "xinetd"
    },
    "value" : "0.0"
  }, {
    "tags" : {
      "command" : "cpd",
      "im.dstype" : "gauge",
      "im.metric-type" : "ts",
      "im.name" : "process-memory",
      "name" : "16158",
      "process-name" : "cpd"
    },
    "value" : "5.2"
  }, {
    "tags" : {
      "command" : "cpd",
      "im.dstype" : "gauge",
      "im.metric-type" : "ts",
      "im.name" : "process-memory",
      "name" : "19868",
      "process-name" : "cpd"
    },
    "value" : "3.6"
  }, {
    "tags" : {
      "command" : "cphamcset",
      "im.dstype" : "gauge",
      "im.metric-type" : "ts",
      "im.name" : "process-memory",
      "name" : "14210",
      "process-name" : "cphamcset"
    },
    "value" : "0.6"
  }, {
    "tags" : {
      "command" : "fwd",
      "im.dstype" : "gauge",
      "im.metric-type" : "ts",
      "im.name" : "process-cpu",
      "name" : "10638",
      "process-name" : "fwd"
    },
    "value" : "0.0"
  }, {
    "tags" : {
      "command" : "fwk",
      "im.dstype" : "gauge",
      "im.metric-type" : "ts",
      "im.name" : "process-cpu",
      "name" : "10363",
      "process-name" : "fwk"
    },
    "value" : "0.1"
  }, {
    "tags" : {
      "command" : "cpsicdemux",
      "im.dstype" : "gauge",
      "im.metric-type" : "ts",
      "im.name" : "process-memory",
      "name" : "5586",
      "process-name" : "cpsicdemux"
    },
    "value" : "0.8"
  }, {
    "tags" : {
      "command" : "cpviewd",
      "im.dstype" : "gauge",
      "im.metric-type" : "ts",
      "im.name" : "process-memory",
      "name" : "6461",
      "process-name" : "cpviewd"
    },
    "value" : "0.9"
  }, {
    "tags" : {
      "command" : "crond",
      "im.dstype" : "gauge",
      "im.metric-type" : "ts",
      "im.name" : "process-memory",
      "name" : "5428",
      "process-name" : "crond"
    },
    "value" : "0.0"
  }, {
    "tags" : {
      "command" : "find /opt/CPinfo-10/bin /sbin /usr/sbin /bin /usr/bin /opt/CPshrd-R77/bin /opt/CPshrd-R77/util /opt/CPshrd-R77/web/Apache/2.2.0/bin",
      "im.dstype" : "gauge",
      "im.metric-type" : "ts",
      "im.name" : "process-memory",
      "name" : "7847",
      "process-name" : "find"
    },
    "value" : "0.0"
  }, {
    "tags" : {
      "command" : "fwd",
      "im.dstype" : "gauge",
      "im.metric-type" : "ts",
      "im.name" : "process-cpu",
      "name" : "10648",
      "process-name" : "fwd"
    },
    "value" : "0.0"
  }, {
    "tags" : {
      "command" : "fwd",
      "im.dstype" : "gauge",
      "im.metric-type" : "ts",
      "im.name" : "process-memory",
      "name" : "10638",
      "process-name" : "fwd"
    },
    "value" : "3.1"
  }, {
    "tags" : {
      "command" : "fwd",
      "im.dstype" : "gauge",
      "im.metric-type" : "ts",
      "im.name" : "process-memory",
      "name" : "10702",
      "process-name" : "fwd"
    },
    "value" : "2.9"
  }, {
    "tags" : {
      "command" : "fwd",
      "im.dstype" : "gauge",
      "im.metric-type" : "ts",
      "im.name" : "process-memory",
      "name" : "6456",
      "process-name" : "fwd"
    },
    "value" : "4.4"
  }, {
    "tags" : {
      "command" : "fwk",
      "im.dstype" : "gauge",
      "im.metric-type" : "ts",
      "im.name" : "process-memory",
      "name" : "10314",
      "process-name" : "fwk"
    },
    "value" : "6.9"
  }, {
    "tags" : {
      "command" : "fwk",
      "im.dstype" : "gauge",
      "im.metric-type" : "ts",
      "im.name" : "process-memory",
      "name" : "10363",
      "process-name" : "fwk"
    },
    "value" : "6.3"
  }, {
    "tags" : {
      "command" : "fwk",
      "im.dstype" : "gauge",
      "im.metric-type" : "ts",
      "im.name" : "process-memory",
      "name" : "10423",
      "process-name" : "fwk"
    },
    "value" : "6.9"
  }, {
    "tags" : {
      "command" : "fwk",
      "im.dstype" : "gauge",
      "im.metric-type" : "ts",
      "im.name" : "process-memory",
      "name" : "6414",
      "process-name" : "fwk"
    },
    "value" : "8.0"
  }, {
    "tags" : {
      "command" : "fwk_wd -i 1 -i6",
      "im.dstype" : "gauge",
      "im.metric-type" : "ts",
      "im.name" : "process-memory",
      "name" : "10352",
      "process-name" : "fwk_wd"
    },
    "value" : "0.1"
  }, {
    "tags" : {
      "command" : "fwk_wd -i 1 -i6",
      "im.dstype" : "gauge",
      "im.metric-type" : "ts",
      "im.name" : "process-memory",
      "name" : "10410",
      "process-name" : "fwk_wd"
    },
    "value" : "0.1"
  }, {
    "tags" : {
      "command" : "fwk_wd -i 1 -i6",
      "im.dstype" : "gauge",
      "im.metric-type" : "ts",
      "im.name" : "process-memory",
      "name" : "6404",
      "process-name" : "fwk_wd"
    },
    "value" : "0.2"
  }, {
    "tags" : {
      "command" : "grep",
      "im.dstype" : "gauge",
      "im.metric-type" : "ts",
      "im.name" : "process-memory",
      "name" : "7799",
      "process-name" : "grep"
    },
    "value" : "0.0"
  }, {
    "tags" : {
      "command" : "grep",
      "im.dstype" : "gauge",
      "im.metric-type" : "ts",
      "im.name" : "process-memory",
      "name" : "7812",
      "process-name" : "grep"
    },
    "value" : "0.0"
  }, {
    "tags" : {
      "command" : "in.geod",
      "im.dstype" : "gauge",
      "im.metric-type" : "ts",
      "im.name" : "process-memory",
      "name" : "14424",
      "process-name" : "in.geod"
    },
    "value" : "5.6"
  }, {
    "tags" : {
      "command" : "init",
      "im.dstype" : "gauge",
      "im.metric-type" : "ts",
      "im.name" : "process-memory",
      "name" : "1",
      "process-name" : "init"
    },
    "value" : "0.0"
  }, {
    "tags" : {
      "command" : "klogd -x -c",
      "im.dstype" : "gauge",
      "im.metric-type" : "ts",
      "im.name" : "process-memory",
      "name" : "4485",
      "process-name" : "klogd"
    },
    "value" : "0.0"
  }, {
    "tags" : {
      "command" : "mpdaemon /opt/CPshrd-R77/CTX/CTX00002/log/mpdaemon.elg",
      "im.dstype" : "gauge",
      "im.metric-type" : "ts",
      "im.name" : "process-memory",
      "name" : "10876",
      "process-name" : "mpdaemon"
    },
    "value" : "0.6"
  }, {
    "tags" : {
      "command" : "mpdaemon /opt/CPshrd-R77/CTX/CTX00003/log/mpdaemon.elg",
      "im.dstype" : "gauge",
      "im.metric-type" : "ts",
      "im.name" : "process-memory",
      "name" : "10779",
      "process-name" : "mpdaemon"
    },
    "value" : "0.6"
  }, {
    "tags" : {
      "command" : "mpdaemon /opt/CPshrd-R77/log/mpdaemon.elg",
      "im.dstype" : "gauge",
      "im.metric-type" : "ts",
      "im.name" : "process-memory",
      "name" : "6463",
      "process-name" : "mpdaemon"
    },
    "value" : "0.8"
  }, {
    "tags" : {
      "command" : "nslookup",
      "im.dstype" : "gauge",
      "im.metric-type" : "ts",
      "im.name" : "process-memory",
      "name" : "7645",
      "process-name" : "nslookup"
    },
    "value" : "0.1"
  }, {
    "tags" : {
      "command" : "postgres: autovacuum launcher",
      "im.dstype" : "gauge",
      "im.metric-type" : "ts",
      "im.name" : "process-memory",
      "name" : "5691",
      "process-name" : "postgres:"
    },
    "value" : "0.0"
  }, {
    "tags" : {
      "command" : "postgres: wal writer",
      "im.dstype" : "gauge",
      "im.metric-type" : "ts",
      "im.name" : "process-memory",
      "name" : "5690",
      "process-name" : "postgres:"
    },
    "value" : "0.0"
  }, {
    "tags" : {
      "command" : "postgres: writer",
      "im.dstype" : "gauge",
      "im.metric-type" : "ts",
      "im.name" : "process-memory",
      "name" : "5689",
      "process-name" : "postgres:"
    },
    "value" : "0.0"
  }, {
    "tags" : {
      "command" : "ps",
      "im.dstype" : "gauge",
      "im.metric-type" : "ts",
      "im.name" : "process-cpu",
      "name" : "7848",
      "process-name" : "ps"
    },
    "value" : "0.0"
  }, {
    "tags" : {
      "command" : "rad",
      "im.dstype" : "gauge",
      "im.metric-type" : "ts",
      "im.name" : "process-cpu",
      "name" : "7827",
      "process-name" : "rad"
    },
    "value" : "0.0"
  }, {
    "tags" : {
      "command" : "sshd:",
      "im.dstype" : "gauge",
      "im.metric-type" : "ts",
      "im.name" : "process-cpu",
      "name" : "13797",
      "process-name" : "sshd:"
    },
    "value" : "0.1"
  }, {
    "tags" : {
      "command" : "sshd:",
      "im.dstype" : "gauge",
      "im.metric-type" : "ts",
      "im.name" : "process-cpu",
      "name" : "7280",
      "process-name" : "sshd:"
    },
    "value" : "0.1"
  }, {
    "tags" : {
      "command" : "fwk_forker",
      "im.dstype" : "gauge",
      "im.metric-type" : "ts",
      "im.name" : "process-memory",
      "name" : "4303",
      "process-name" : "fwk_forker"
    },
    "value" : "8.7"
  }, {
    "tags" : {
      "command" : "fwk_wd -i 1 -i6",
      "im.dstype" : "gauge",
      "im.metric-type" : "ts",
      "im.name" : "process-memory",
      "name" : "10313",
      "process-name" : "fwk_wd"
    },
    "value" : "0.1"
  }, {
    "tags" : {
      "command" : "postgres: stats collector",
      "im.dstype" : "gauge",
      "im.metric-type" : "ts",
      "im.name" : "process-memory",
      "name" : "5692",
      "process-name" : "postgres:"
    },
    "value" : "0.0"
  }, {
    "tags" : {
      "command" : "ps",
      "im.dstype" : "gauge",
      "im.metric-type" : "ts",
      "im.name" : "process-memory",
      "name" : "7848",
      "process-name" : "ps"
    },
    "value" : "0.0"
  }, {
    "tags" : {
      "command" : "rad",
      "im.dstype" : "gauge",
      "im.metric-type" : "ts",
      "im.name" : "process-memory",
      "name" : "7827",
      "process-name" : "rad"
    },
    "value" : "1.5"
  }, {
    "tags" : {
      "command" : "sleep",
      "im.dstype" : "gauge",
      "im.metric-type" : "ts",
      "im.name" : "process-memory",
      "name" : "22606",
      "process-name" : "sleep"
    },
    "value" : "0.0"
  }, {
    "tags" : {
      "command" : "sleep",
      "im.dstype" : "gauge",
      "im.metric-type" : "ts",
      "im.name" : "process-memory",
      "name" : "7821",
      "process-name" : "sleep"
    },
    "value" : "0.0"
  }, {
    "tags" : {
      "command" : "sort",
      "im.dstype" : "gauge",
      "im.metric-type" : "ts",
      "im.name" : "process-memory",
      "name" : "2478",
      "process-name" : "sort"
    },
    "value" : "0.0"
  }, {
    "tags" : {
      "command" : "sort",
      "im.dstype" : "gauge",
      "im.metric-type" : "ts",
      "im.name" : "process-memory",
      "name" : "3638",
      "process-name" : "sort"
    },
    "value" : "0.0"
  }, {
    "tags" : {
      "command" : "sshd:",
      "im.dstype" : "gauge",
      "im.metric-type" : "ts",
      "im.name" : "process-memory",
      "name" : "13797",
      "process-name" : "sshd:"
    },
    "value" : "0.3"
  }, {
    "tags" : {
      "command" : "sshd:",
      "im.dstype" : "gauge",
      "im.metric-type" : "ts",
      "im.name" : "process-memory",
      "name" : "21389",
      "process-name" : "sshd:"
    },
    "value" : "0.3"
  }, {
    "tags" : {
      "command" : "sshd:",
      "im.dstype" : "gauge",
      "im.metric-type" : "ts",
      "im.name" : "process-memory",
      "name" : "22034",
      "process-name" : "sshd:"
    },
    "value" : "0.3"
  }, {
    "tags" : {
      "command" : "sshd:",
      "im.dstype" : "gauge",
      "im.metric-type" : "ts",
      "im.name" : "process-memory",
      "name" : "27181",
      "process-name" : "sshd:"
    },
    "value" : "0.3"
  }, {
    "tags" : {
      "command" : "sshd:",
      "im.dstype" : "gauge",
      "im.metric-type" : "ts",
      "im.name" : "process-memory",
      "name" : "27308",
      "process-name" : "sshd:"
    },
    "value" : "0.3"
  }, {
    "tags" : {
      "command" : "sshd:",
      "im.dstype" : "gauge",
      "im.metric-type" : "ts",
      "im.name" : "process-memory",
      "name" : "30860",
      "process-name" : "sshd:"
    },
    "value" : "0.3"
  }, {
    "tags" : {
      "command" : "sshd:",
      "im.dstype" : "gauge",
      "im.metric-type" : "ts",
      "im.name" : "process-memory",
      "name" : "3201",
      "process-name" : "sshd:"
    },
    "value" : "0.3"
  }, {
    "tags" : {
      "command" : "sshd:",
      "im.dstype" : "gauge",
      "im.metric-type" : "ts",
      "im.name" : "process-memory",
      "name" : "6968",
      "process-name" : "sshd:"
    },
    "value" : "0.3"
  }, {
    "tags" : {
      "command" : "sshd:",
      "im.dstype" : "gauge",
      "im.metric-type" : "ts",
      "im.name" : "process-memory",
      "name" : "7280",
      "process-name" : "sshd:"
    },
    "value" : "0.3"
  }, {
    "tags" : {
      "command" : "syslogd -m 0 -z 515 -P info -f",
      "im.dstype" : "gauge",
      "im.metric-type" : "ts",
      "im.name" : "process-memory",
      "name" : "4480",
      "process-name" : "syslogd"
    },
    "value" : "0.0"
  }, {
    "tags" : {
      "command" : "uniq",
      "im.dstype" : "gauge",
      "im.metric-type" : "ts",
      "im.name" : "process-memory",
      "name" : "2479",
      "process-name" : "uniq"
    },
    "value" : "0.0"
  }, {
    "tags" : {
      "command" : "uniq",
      "im.dstype" : "gauge",
      "im.metric-type" : "ts",
      "im.name" : "process-memory",
      "name" : "3639",
      "process-name" : "uniq"
    },
    "value" : "0.0"
  }, {
    "tags" : {
      "command" : "xinetd -stayalive -pidfile",
      "im.dstype" : "gauge",
      "im.metric-type" : "ts",
      "im.name" : "process-memory",
      "name" : "5322",
      "process-name" : "xinetd"
    },
    "value" : "0.0"
  } ]
}
