{
  "command" : "get-interesting-global-props",
  "metrics" : [ {
    "tags" : {
      "display-name" : "Global Properties",
      "im.dstype" : "gauge",
      "im.dstype.displaytype" : "number",
      "im.identity-tags" : "name",
      "im.metric-type" : "ts",
      "im.name" : "global-property-value",
      "im.step" : "300",
      "live-config" : "true",
      "name" : "http_max_concurrent_connections"
    },
    "value" : "1000.0"
  } ]
}
