{
  "command" : "chkp-mgmt-mdsstat-mds",
  "metrics" : [ {
    "tags" : {
      "description" : "CPD",
      "im.dstype" : "gauge",
      "im.metric-type" : "ts",
      "im.name" : "process-state"
    },
    "value" : "1.0"
  }, {
    "tags" : {
      "description" : "CPCA",
      "im.dstype" : "gauge",
      "im.metric-type" : "ts",
      "im.name" : "process-state",
      "vs.ip" : "192.168.197.34",
      "vs.name" : "lab-CP-MGMT-MDM-VS1_Management_Server"
    },
    "value" : "1.0"
  }, {
    "tags" : {
      "description" : "CPCA",
      "im.dstype" : "gauge",
      "im.metric-type" : "ts",
      "im.name" : "process-state",
      "vs.ip" : "192.168.197.35",
      "vs.name" : "lab-CP-MGMT-MDM-VS2_Management_Server"
    },
    "value" : "1.0"
  }, {
    "tags" : {
      "description" : "CPD",
      "im.dstype" : "gauge",
      "im.metric-type" : "ts",
      "im.name" : "process-state",
      "vs.ip" : "192.168.197.34",
      "vs.name" : "lab-CP-MGMT-MDM-VS1_Management_Server"
    },
    "value" : "1.0"
  }, {
    "tags" : {
      "description" : "CPD",
      "im.dstype" : "gauge",
      "im.metric-type" : "ts",
      "im.name" : "process-state",
      "vs.ip" : "192.168.197.35",
      "vs.name" : "lab-CP-MGMT-MDM-VS2_Management_Server"
    },
    "value" : "1.0"
  }, {
    "tags" : {
      "description" : "FWD",
      "im.dstype" : "gauge",
      "im.metric-type" : "ts",
      "im.name" : "process-state",
      "vs.ip" : "192.168.197.34",
      "vs.name" : "lab-CP-MGMT-MDM-VS1_Management_Server"
    },
    "value" : "1.0"
  }, {
    "tags" : {
      "description" : "FWD",
      "im.dstype" : "gauge",
      "im.metric-type" : "ts",
      "im.name" : "process-state",
      "vs.ip" : "192.168.197.35",
      "vs.name" : "lab-CP-MGMT-MDM-VS2_Management_Server"
    },
    "value" : "1.0"
  }, {
    "tags" : {
      "description" : "FWM",
      "im.dstype" : "gauge",
      "im.metric-type" : "ts",
      "im.name" : "process-state",
      "vs.ip" : "192.168.197.34",
      "vs.name" : "lab-CP-MGMT-MDM-VS1_Management_Server"
    },
    "value" : "0.0"
  }, {
    "tags" : {
      "description" : "FWM",
      "im.dstype" : "gauge",
      "im.metric-type" : "ts",
      "im.name" : "process-state",
      "vs.ip" : "192.168.197.35",
      "vs.name" : "lab-CP-MGMT-MDM-VS2_Management_Server"
    },
    "value" : "1.0"
  }, {
    "tags" : {
      "description" : "CPCA",
      "im.dstype" : "gauge",
      "im.metric-type" : "ts",
      "im.name" : "process-state"
    },
    "value" : "1.0"
  }, {
    "tags" : {
      "description" : "FWD",
      "im.dstype" : "gauge",
      "im.metric-type" : "ts",
      "im.name" : "process-state"
    },
    "value" : "1.0"
  }, {
    "tags" : {
      "description" : "FWM",
      "im.dstype" : "gauge",
      "im.metric-type" : "ts",
      "im.name" : "process-state"
    },
    "value" : "1.0"
  } ]
}
