{
  "command" : "cpstat_fw_vsx",
  "metrics" : [ {
    "tags" : {
      "display-name" : "Firewall Policy",
      "im.dstype" : "gauge",
      "im.dstype.displaytype" : "state",
      "im.identity-tags" : "name",
      "im.metric-type" : "ts",
      "im.name" : "policy-installed",
      "im.step" : "60",
      "live-config" : "true",
      "name" : "InitialPolicy",
      "vs.id" : "1",
      "vs.name" : "VSX-CXL2-Gear_VSW"
    },
    "value" : "1.0"
  }, {
    "tags" : {
      "display-name" : "Firewall Policy",
      "im.dstype" : "gauge",
      "im.dstype.displaytype" : "state",
      "im.metric-type" : "ts",
      "im.name" : "policy-install-last-modified",
      "im.step" : "60",
      "live-config" : "true",
      "name" : "InitialPolicy",
      "vs.id" : "1",
      "vs.name" : "VSX-CXL2-Gear_VSW"
    },
    "value" : "1.456989855E9"
  }, {
    "tags" : {
      "display-name" : "Firewall Policy",
      "im.dstype" : "gauge",
      "im.dstype.displaytype" : "state",
      "im.metric-type" : "ts",
      "im.name" : "policy-install-last-modified",
      "im.step" : "60",
      "live-config" : "true",
      "name" : "Standard",
      "vs.id" : "0",
      "vs.name" : "VSX-CXL2-Gear"
    },
    "value" : "1.462755941E9"
  }, {
    "tags" : {
      "display-name" : "Firewall Policy",
      "im.dstype" : "gauge",
      "im.dstype.displaytype" : "state",
      "im.metric-type" : "ts",
      "im.name" : "policy-install-last-modified",
      "im.step" : "60",
      "live-config" : "true",
      "name" : "Standard",
      "vs.id" : "2",
      "vs.name" : "VSX-CXL2-Gear_Solid_Snake"
    },
    "value" : "1.456989867E9"
  }, {
    "tags" : {
      "display-name" : "Firewall Policy",
      "im.dstype" : "gauge",
      "im.dstype.displaytype" : "state",
      "im.identity-tags" : "name",
      "im.metric-type" : "ts",
      "im.name" : "policy-installed",
      "im.step" : "60",
      "live-config" : "true",
      "name" : "",
      "vs.id" : "3",
      "vs.name" : "VSX-CXL2-Gear_Ed"
    },
    "value" : "0.0"
  }, {
    "tags" : {
      "display-name" : "Firewall Policy",
      "im.dstype" : "gauge",
      "im.dstype.displaytype" : "state",
      "im.identity-tags" : "name",
      "im.metric-type" : "ts",
      "im.name" : "policy-installed",
      "im.step" : "60",
      "live-config" : "true",
      "name" : "Standard",
      "vs.id" : "0",
      "vs.name" : "VSX-CXL2-Gear"
    },
    "value" : "1.0"
  }, {
    "tags" : {
      "display-name" : "Firewall Policy",
      "im.dstype" : "gauge",
      "im.dstype.displaytype" : "state",
      "im.identity-tags" : "name",
      "im.metric-type" : "ts",
      "im.name" : "policy-installed",
      "im.step" : "60",
      "live-config" : "true",
      "name" : "Standard",
      "vs.id" : "2",
      "vs.name" : "VSX-CXL2-Gear_Solid_Snake"
    },
    "value" : "1.0"
  } ]
}
