{
  "command" : "junos-show-route-summary",
  "metrics" : [ {
    "tags" : {
      "im.dstype" : "gauge",
      "im.metric-type" : "ts",
      "im.name" : "routes-usage",
      "im.step" : "60",
      "name" : "ALL"
    },
    "value" : "80.0"
  }, {
    "tags" : {
      "im.dstype" : "gauge",
      "im.metric-type" : "ts",
      "im.name" : "routes-usage",
      "im.step" : "60",
      "name" : "R2.inet.0"
    },
    "value" : "19.0"
  }, {
    "tags" : {
      "im.dstype" : "gauge",
      "im.metric-type" : "ts",
      "im.name" : "routes-usage",
      "im.step" : "60",
      "name" : "R3.inet.0"
    },
    "value" : "11.0"
  }, {
    "tags" : {
      "im.dstype" : "gauge",
      "im.metric-type" : "ts",
      "im.name" : "routes-usage",
      "im.step" : "60",
      "name" : "R4.inet.0"
    },
    "value" : "28.0"
  }, {
    "tags" : {
      "im.dstype" : "gauge",
      "im.metric-type" : "ts",
      "im.name" : "routes-usage",
      "im.step" : "60",
      "name" : "inet.0"
    },
    "value" : "22.0"
  } ]
}
