{
  "command" : "junos-show-ntp-associations",
  "metrics" : [ {
    "tags" : {
      "im.metric-type" : "runtime",
      "im.name" : "ntp-servers"
    },
    "value" : [ {
      "version" : "3",
      "ipaddress" : "10.10.1.1",
      "type" : "other"
    }, {
      "ipaddress" : "140.142.1.8",
      "type" : "primary",
      "version" : "4"
    }, {
      "ipaddress" : "140.142.2.8",
      "version" : "2",
      "type" : "secondary"
    }, {
      "ipaddress" : "192.168.1.100",
      "version" : "4",
      "type" : "other"
    } ]
  }, {
    "tags" : {
      "display-name" : "NTP Servers",
      "im.dstype" : "gauge",
      "im.dstype.displaytype" : "state",
      "im.identity-tags" : "name",
      "im.metric-type" : "ts",
      "im.name" : "ntp-server-state",
      "live-config" : "true",
      "name" : "10.10.1.1"
    },
    "value" : "0.0"
  }, {
    "tags" : {
      "display-name" : "NTP Servers",
      "im.dstype" : "gauge",
      "im.dstype.displaytype" : "state",
      "im.identity-tags" : "name",
      "im.metric-type" : "ts",
      "im.name" : "ntp-server-state",
      "live-config" : "true",
      "name" : "140.142.1.8"
    },
    "value" : "1.0"
  }, {
    "tags" : {
      "display-name" : "NTP Servers",
      "im.dstype" : "gauge",
      "im.dstype.displaytype" : "state",
      "im.identity-tags" : "name",
      "im.metric-type" : "ts",
      "im.name" : "ntp-server-state",
      "live-config" : "true",
      "name" : "140.142.2.8"
    },
    "value" : "1.0"
  }, {
    "tags" : {
      "display-name" : "NTP Servers",
      "im.dstype" : "gauge",
      "im.dstype.displaytype" : "state",
      "im.identity-tags" : "name",
      "im.metric-type" : "ts",
      "im.name" : "ntp-server-state",
      "live-config" : "true",
      "name" : "192.168.1.100"
    },
    "value" : "0.0"
  } ]
}
